<?xml version="1.0" encoding="UTF-8"?>
<dia:diagram xmlns:dia="http://www.lysator.liu.se/~alla/dia/">
  <dia:diagramdata>
    <dia:attribute name="background">
      <dia:color val="#ffffff"/>
    </dia:attribute>
    <dia:attribute name="pagebreak">
      <dia:color val="#000099"/>
    </dia:attribute>
    <dia:attribute name="paper">
      <dia:composite type="paper">
        <dia:attribute name="name">
          <dia:string>#A4#</dia:string>
        </dia:attribute>
        <dia:attribute name="tmargin">
          <dia:real val="2.8222000598907471"/>
        </dia:attribute>
        <dia:attribute name="bmargin">
          <dia:real val="2.8222000598907471"/>
        </dia:attribute>
        <dia:attribute name="lmargin">
          <dia:real val="2.8222000598907471"/>
        </dia:attribute>
        <dia:attribute name="rmargin">
          <dia:real val="2.8222000598907471"/>
        </dia:attribute>
        <dia:attribute name="is_portrait">
          <dia:boolean val="true"/>
        </dia:attribute>
        <dia:attribute name="scaling">
          <dia:real val="1"/>
        </dia:attribute>
        <dia:attribute name="fitto">
          <dia:boolean val="false"/>
        </dia:attribute>
      </dia:composite>
    </dia:attribute>
    <dia:attribute name="grid">
      <dia:composite type="grid">
        <dia:attribute name="width_x">
          <dia:real val="1"/>
        </dia:attribute>
        <dia:attribute name="width_y">
          <dia:real val="1"/>
        </dia:attribute>
        <dia:attribute name="visible_x">
          <dia:int val="1"/>
        </dia:attribute>
        <dia:attribute name="visible_y">
          <dia:int val="1"/>
        </dia:attribute>
        <dia:composite type="color"/>
      </dia:composite>
    </dia:attribute>
    <dia:attribute name="color">
      <dia:color val="#d8e5e5"/>
    </dia:attribute>
    <dia:attribute name="guides">
      <dia:composite type="guides">
        <dia:attribute name="hguides"/>
        <dia:attribute name="vguides"/>
      </dia:composite>
    </dia:attribute>
  </dia:diagramdata>
  <dia:layer name="Background" visible="true" active="true">
    <dia:object type="UML - Node" version="0" id="O0">
      <dia:attribute name="obj_pos">
        <dia:point val="22.6,1.15"/>
      </dia:attribute>
      <dia:attribute name="obj_bb">
        <dia:rectangle val="22.55,0.6;34.95,10.6"/>
      </dia:attribute>
      <dia:attribute name="meta">
        <dia:composite type="dict"/>
      </dia:attribute>
      <dia:attribute name="elem_corner">
        <dia:point val="22.6,1.15"/>
      </dia:attribute>
      <dia:attribute name="elem_width">
        <dia:real val="11.799999999999994"/>
      </dia:attribute>
      <dia:attribute name="elem_height">
        <dia:real val="9.3999999999999968"/>
      </dia:attribute>
      <dia:attribute name="line_colour">
        <dia:color val="#000000"/>
      </dia:attribute>
      <dia:attribute name="fill_colour">
        <dia:color val="#ffffff"/>
      </dia:attribute>
      <dia:attribute name="name">
        <dia:composite type="text">
          <dia:attribute name="string">
            <dia:string>#Main Server#</dia:string>
          </dia:attribute>
          <dia:attribute name="font">
            <dia:font family="sans" style="0" name="Helvetica"/>
          </dia:attribute>
          <dia:attribute name="height">
            <dia:real val="0.80000000000000004"/>
          </dia:attribute>
          <dia:attribute name="pos">
            <dia:point val="23.1,2.245"/>
          </dia:attribute>
          <dia:attribute name="color">
            <dia:color val="#000000"/>
          </dia:attribute>
          <dia:attribute name="alignment">
            <dia:enum val="0"/>
          </dia:attribute>
        </dia:composite>
      </dia:attribute>
    </dia:object>
    <dia:object type="UML - Component" version="0" id="O1">
      <dia:attribute name="obj_pos">
        <dia:point val="24.8,4.45"/>
      </dia:attribute>
      <dia:attribute name="obj_bb">
        <dia:rectangle val="24.75,4.4;32.5425,8"/>
      </dia:attribute>
      <dia:attribute name="meta">
        <dia:composite type="dict"/>
      </dia:attribute>
      <dia:attribute name="elem_corner">
        <dia:point val="24.8,4.45"/>
      </dia:attribute>
      <dia:attribute name="elem_width">
        <dia:real val="7.6924999999999999"/>
      </dia:attribute>
      <dia:attribute name="elem_height">
        <dia:real val="3.5"/>
      </dia:attribute>
      <dia:attribute name="line_colour">
        <dia:color val="#000000"/>
      </dia:attribute>
      <dia:attribute name="fill_colour">
        <dia:color val="#ffffff"/>
      </dia:attribute>
      <dia:attribute name="stereotype">
        <dia:string>##</dia:string>
      </dia:attribute>
      <dia:attribute name="text">
        <dia:composite type="text">
          <dia:attribute name="string">
            <dia:string>#NetHelp Server#</dia:string>
          </dia:attribute>
          <dia:attribute name="font">
            <dia:font family="sans" style="0" name="Helvetica"/>
          </dia:attribute>
          <dia:attribute name="height">
            <dia:real val="0.80000000000000004"/>
          </dia:attribute>
          <dia:attribute name="pos">
            <dia:point val="27.2,5.745"/>
          </dia:attribute>
          <dia:attribute name="color">
            <dia:color val="#000000"/>
          </dia:attribute>
          <dia:attribute name="alignment">
            <dia:enum val="0"/>
          </dia:attribute>
        </dia:composite>
      </dia:attribute>
    </dia:object>
    <dia:object type="UML - Node" version="0" id="O2">
      <dia:attribute name="obj_pos">
        <dia:point val="36,14"/>
      </dia:attribute>
      <dia:attribute name="obj_bb">
        <dia:rectangle val="35.95,13.45;46.55,22.55"/>
      </dia:attribute>
      <dia:attribute name="meta">
        <dia:composite type="dict"/>
      </dia:attribute>
      <dia:attribute name="elem_corner">
        <dia:point val="36,14"/>
      </dia:attribute>
      <dia:attribute name="elem_width">
        <dia:real val="10"/>
      </dia:attribute>
      <dia:attribute name="elem_height">
        <dia:real val="8.5"/>
      </dia:attribute>
      <dia:attribute name="line_colour">
        <dia:color val="#000000"/>
      </dia:attribute>
      <dia:attribute name="fill_colour">
        <dia:color val="#ffffff"/>
      </dia:attribute>
      <dia:attribute name="name">
        <dia:composite type="text">
          <dia:attribute name="string">
            <dia:string>#Support PC#</dia:string>
          </dia:attribute>
          <dia:attribute name="font">
            <dia:font family="sans" style="0" name="Helvetica"/>
          </dia:attribute>
          <dia:attribute name="height">
            <dia:real val="0.80000000000000004"/>
          </dia:attribute>
          <dia:attribute name="pos">
            <dia:point val="36.5,15.095"/>
          </dia:attribute>
          <dia:attribute name="color">
            <dia:color val="#000000"/>
          </dia:attribute>
          <dia:attribute name="alignment">
            <dia:enum val="0"/>
          </dia:attribute>
        </dia:composite>
      </dia:attribute>
    </dia:object>
    <dia:object type="UML - Component" version="0" id="O3">
      <dia:attribute name="obj_pos">
        <dia:point val="37,17"/>
      </dia:attribute>
      <dia:attribute name="obj_bb">
        <dia:rectangle val="36.95,16.95;44.815,20.55"/>
      </dia:attribute>
      <dia:attribute name="meta">
        <dia:composite type="dict"/>
      </dia:attribute>
      <dia:attribute name="elem_corner">
        <dia:point val="37,17"/>
      </dia:attribute>
      <dia:attribute name="elem_width">
        <dia:real val="7.7649999999999997"/>
      </dia:attribute>
      <dia:attribute name="elem_height">
        <dia:real val="3.5"/>
      </dia:attribute>
      <dia:attribute name="line_colour">
        <dia:color val="#000000"/>
      </dia:attribute>
      <dia:attribute name="fill_colour">
        <dia:color val="#ffffff"/>
      </dia:attribute>
      <dia:attribute name="stereotype">
        <dia:string>##</dia:string>
      </dia:attribute>
      <dia:attribute name="text">
        <dia:composite type="text">
          <dia:attribute name="string">
            <dia:string>#NetHelp Viewer#</dia:string>
          </dia:attribute>
          <dia:attribute name="font">
            <dia:font family="sans" style="0" name="Helvetica"/>
          </dia:attribute>
          <dia:attribute name="height">
            <dia:real val="0.80000000000000004"/>
          </dia:attribute>
          <dia:attribute name="pos">
            <dia:point val="39.4,18.295"/>
          </dia:attribute>
          <dia:attribute name="color">
            <dia:color val="#000000"/>
          </dia:attribute>
          <dia:attribute name="alignment">
            <dia:enum val="0"/>
          </dia:attribute>
        </dia:composite>
      </dia:attribute>
    </dia:object>
    <dia:object type="UML - Node" version="0" id="O4">
      <dia:attribute name="obj_pos">
        <dia:point val="4,14"/>
      </dia:attribute>
      <dia:attribute name="obj_bb">
        <dia:rectangle val="3.95,13.45;33.45,22.6"/>
      </dia:attribute>
      <dia:attribute name="meta">
        <dia:composite type="dict"/>
      </dia:attribute>
      <dia:attribute name="elem_corner">
        <dia:point val="4,14"/>
      </dia:attribute>
      <dia:attribute name="elem_width">
        <dia:real val="28.900000000000006"/>
      </dia:attribute>
      <dia:attribute name="elem_height">
        <dia:real val="8.5500000000000007"/>
      </dia:attribute>
      <dia:attribute name="line_colour">
        <dia:color val="#000000"/>
      </dia:attribute>
      <dia:attribute name="fill_colour">
        <dia:color val="#ffffff"/>
      </dia:attribute>
      <dia:attribute name="name">
        <dia:composite type="text">
          <dia:attribute name="string">
            <dia:string>#Client PC#</dia:string>
          </dia:attribute>
          <dia:attribute name="font">
            <dia:font family="sans" style="0" name="Helvetica"/>
          </dia:attribute>
          <dia:attribute name="height">
            <dia:real val="0.80000000000000004"/>
          </dia:attribute>
          <dia:attribute name="pos">
            <dia:point val="4.5,15.095"/>
          </dia:attribute>
          <dia:attribute name="color">
            <dia:color val="#000000"/>
          </dia:attribute>
          <dia:attribute name="alignment">
            <dia:enum val="0"/>
          </dia:attribute>
        </dia:composite>
      </dia:attribute>
    </dia:object>
    <dia:object type="UML - Component" version="0" id="O5">
      <dia:attribute name="obj_pos">
        <dia:point val="5,17"/>
      </dia:attribute>
      <dia:attribute name="obj_bb">
        <dia:rectangle val="4.95,16.95;11.445,20.55"/>
      </dia:attribute>
      <dia:attribute name="meta">
        <dia:composite type="dict"/>
      </dia:attribute>
      <dia:attribute name="elem_corner">
        <dia:point val="5,17"/>
      </dia:attribute>
      <dia:attribute name="elem_width">
        <dia:real val="6.3950000000000005"/>
      </dia:attribute>
      <dia:attribute name="elem_height">
        <dia:real val="3.5"/>
      </dia:attribute>
      <dia:attribute name="line_colour">
        <dia:color val="#000000"/>
      </dia:attribute>
      <dia:attribute name="fill_colour">
        <dia:color val="#ffffff"/>
      </dia:attribute>
      <dia:attribute name="stereotype">
        <dia:string>##</dia:string>
      </dia:attribute>
      <dia:attribute name="text">
        <dia:composite type="text">
          <dia:attribute name="string">
            <dia:string>#VNC server#</dia:string>
          </dia:attribute>
          <dia:attribute name="font">
            <dia:font family="sans" style="0" name="Helvetica"/>
          </dia:attribute>
          <dia:attribute name="height">
            <dia:real val="0.80000000000000004"/>
          </dia:attribute>
          <dia:attribute name="pos">
            <dia:point val="7.4,18.295"/>
          </dia:attribute>
          <dia:attribute name="color">
            <dia:color val="#000000"/>
          </dia:attribute>
          <dia:attribute name="alignment">
            <dia:enum val="0"/>
          </dia:attribute>
        </dia:composite>
      </dia:attribute>
    </dia:object>
    <dia:object type="UML - Component" version="0" id="O6">
      <dia:attribute name="obj_pos">
        <dia:point val="15,17"/>
      </dia:attribute>
      <dia:attribute name="obj_bb">
        <dia:rectangle val="14.95,16.95;22.4925,20.55"/>
      </dia:attribute>
      <dia:attribute name="meta">
        <dia:composite type="dict"/>
      </dia:attribute>
      <dia:attribute name="elem_corner">
        <dia:point val="15,17"/>
      </dia:attribute>
      <dia:attribute name="elem_width">
        <dia:real val="7.4424999999999999"/>
      </dia:attribute>
      <dia:attribute name="elem_height">
        <dia:real val="3.5"/>
      </dia:attribute>
      <dia:attribute name="line_colour">
        <dia:color val="#000000"/>
      </dia:attribute>
      <dia:attribute name="fill_colour">
        <dia:color val="#ffffff"/>
      </dia:attribute>
      <dia:attribute name="stereotype">
        <dia:string>##</dia:string>
      </dia:attribute>
      <dia:attribute name="text">
        <dia:composite type="text">
          <dia:attribute name="string">
            <dia:string>#NetHelp Client#</dia:string>
          </dia:attribute>
          <dia:attribute name="font">
            <dia:font family="sans" style="0" name="Helvetica"/>
          </dia:attribute>
          <dia:attribute name="height">
            <dia:real val="0.80000000000000004"/>
          </dia:attribute>
          <dia:attribute name="pos">
            <dia:point val="17.4,18.295"/>
          </dia:attribute>
          <dia:attribute name="color">
            <dia:color val="#000000"/>
          </dia:attribute>
          <dia:attribute name="alignment">
            <dia:enum val="0"/>
          </dia:attribute>
        </dia:composite>
      </dia:attribute>
    </dia:object>
    <dia:object type="Standard - Line" version="0" id="O7">
      <dia:attribute name="obj_pos">
        <dia:point val="20.1791,16.9743"/>
      </dia:attribute>
      <dia:attribute name="obj_bb">
        <dia:rectangle val="20.1089,7.91265;27.3463,17.0445"/>
      </dia:attribute>
      <dia:attribute name="conn_endpoints">
        <dia:point val="20.1791,16.9743"/>
        <dia:point val="27.2761,8.00035"/>
      </dia:attribute>
      <dia:attribute name="numcp">
        <dia:int val="1"/>
      </dia:attribute>
      <dia:attribute name="end_arrow">
        <dia:enum val="22"/>
      </dia:attribute>
      <dia:attribute name="end_arrow_length">
        <dia:real val="0.5"/>
      </dia:attribute>
      <dia:attribute name="end_arrow_width">
        <dia:real val="0.5"/>
      </dia:attribute>
      <dia:connections>
        <dia:connection handle="0" to="O6" connection="10"/>
        <dia:connection handle="1" to="O1" connection="10"/>
      </dia:connections>
    </dia:object>
    <dia:object type="Standard - Line" version="0" id="O8">
      <dia:attribute name="obj_pos">
        <dia:point val="14.9499,19.45"/>
      </dia:attribute>
      <dia:attribute name="obj_bb">
        <dia:rectangle val="11.3333,19.0882;14.9999,19.8118"/>
      </dia:attribute>
      <dia:attribute name="conn_endpoints">
        <dia:point val="14.9499,19.45"/>
        <dia:point val="11.4451,19.45"/>
      </dia:attribute>
      <dia:attribute name="numcp">
        <dia:int val="1"/>
      </dia:attribute>
      <dia:attribute name="end_arrow">
        <dia:enum val="22"/>
      </dia:attribute>
      <dia:attribute name="end_arrow_length">
        <dia:real val="0.5"/>
      </dia:attribute>
      <dia:attribute name="end_arrow_width">
        <dia:real val="0.5"/>
      </dia:attribute>
      <dia:connections>
        <dia:connection handle="0" to="O6" connection="10"/>
        <dia:connection handle="1" to="O5" connection="10"/>
      </dia:connections>
    </dia:object>
    <dia:object type="Standard - Line" version="0" id="O9">
      <dia:attribute name="obj_pos">
        <dia:point val="37.9687,16.9743"/>
      </dia:attribute>
      <dia:attribute name="obj_bb">
        <dia:rectangle val="29.141,7.9203;38.0394,17.045"/>
      </dia:attribute>
      <dia:attribute name="conn_endpoints">
        <dia:point val="37.9687,16.9743"/>
        <dia:point val="29.2191,8.00035"/>
      </dia:attribute>
      <dia:attribute name="numcp">
        <dia:int val="1"/>
      </dia:attribute>
      <dia:attribute name="end_arrow">
        <dia:enum val="22"/>
      </dia:attribute>
      <dia:attribute name="end_arrow_length">
        <dia:real val="0.5"/>
      </dia:attribute>
      <dia:attribute name="end_arrow_width">
        <dia:real val="0.5"/>
      </dia:attribute>
      <dia:connections>
        <dia:connection handle="0" to="O3" connection="10"/>
        <dia:connection handle="1" to="O1" connection="10"/>
      </dia:connections>
    </dia:object>
    <dia:object type="Standard - Text" version="1" id="O10">
      <dia:attribute name="obj_pos">
        <dia:point val="12.75,18.825"/>
      </dia:attribute>
      <dia:attribute name="obj_bb">
        <dia:rectangle val="12.75,18.23;13.8875,18.9775"/>
      </dia:attribute>
      <dia:attribute name="text">
        <dia:composite type="text">
          <dia:attribute name="string">
            <dia:string>#vnc#</dia:string>
          </dia:attribute>
          <dia:attribute name="font">
            <dia:font family="sans" style="0" name="Helvetica"/>
          </dia:attribute>
          <dia:attribute name="height">
            <dia:real val="0.80000000000000004"/>
          </dia:attribute>
          <dia:attribute name="pos">
            <dia:point val="12.75,18.825"/>
          </dia:attribute>
          <dia:attribute name="color">
            <dia:color val="#000000"/>
          </dia:attribute>
          <dia:attribute name="alignment">
            <dia:enum val="0"/>
          </dia:attribute>
        </dia:composite>
      </dia:attribute>
      <dia:attribute name="valign">
        <dia:enum val="3"/>
      </dia:attribute>
    </dia:object>
    <dia:object type="Standard - Text" version="1" id="O11">
      <dia:attribute name="obj_pos">
        <dia:point val="25.05,12.25"/>
      </dia:attribute>
      <dia:attribute name="obj_bb">
        <dia:rectangle val="25.05,11.655;27.195,12.4025"/>
      </dia:attribute>
      <dia:attribute name="text">
        <dia:composite type="text">
          <dia:attribute name="string">
            <dia:string>#http(s)#</dia:string>
          </dia:attribute>
          <dia:attribute name="font">
            <dia:font family="sans" style="0" name="Helvetica"/>
          </dia:attribute>
          <dia:attribute name="height">
            <dia:real val="0.80000000000000004"/>
          </dia:attribute>
          <dia:attribute name="pos">
            <dia:point val="25.05,12.25"/>
          </dia:attribute>
          <dia:attribute name="color">
            <dia:color val="#000000"/>
          </dia:attribute>
          <dia:attribute name="alignment">
            <dia:enum val="0"/>
          </dia:attribute>
        </dia:composite>
      </dia:attribute>
      <dia:attribute name="valign">
        <dia:enum val="3"/>
      </dia:attribute>
    </dia:object>
    <dia:object type="Standard - Text" version="1" id="O12">
      <dia:attribute name="obj_pos">
        <dia:point val="34.25,12.25"/>
      </dia:attribute>
      <dia:attribute name="obj_bb">
        <dia:rectangle val="34.25,11.655;36.395,12.4025"/>
      </dia:attribute>
      <dia:attribute name="text">
        <dia:composite type="text">
          <dia:attribute name="string">
            <dia:string>#http(s)#</dia:string>
          </dia:attribute>
          <dia:attribute name="font">
            <dia:font family="sans" style="0" name="Helvetica"/>
          </dia:attribute>
          <dia:attribute name="height">
            <dia:real val="0.80000000000000004"/>
          </dia:attribute>
          <dia:attribute name="pos">
            <dia:point val="34.25,12.25"/>
          </dia:attribute>
          <dia:attribute name="color">
            <dia:color val="#000000"/>
          </dia:attribute>
          <dia:attribute name="alignment">
            <dia:enum val="0"/>
          </dia:attribute>
        </dia:composite>
      </dia:attribute>
      <dia:attribute name="valign">
        <dia:enum val="3"/>
      </dia:attribute>
    </dia:object>
    <dia:object type="UML - Node" version="0" id="O13">
      <dia:attribute name="obj_pos">
        <dia:point val="17,25"/>
      </dia:attribute>
      <dia:attribute name="obj_bb">
        <dia:rectangle val="16.95,24.45;21.2425,26.85"/>
      </dia:attribute>
      <dia:attribute name="meta">
        <dia:composite type="dict"/>
      </dia:attribute>
      <dia:attribute name="elem_corner">
        <dia:point val="17,25"/>
      </dia:attribute>
      <dia:attribute name="elem_width">
        <dia:real val="3.6924999999999999"/>
      </dia:attribute>
      <dia:attribute name="elem_height">
        <dia:real val="1.8000000000000007"/>
      </dia:attribute>
      <dia:attribute name="line_colour">
        <dia:color val="#000000"/>
      </dia:attribute>
      <dia:attribute name="fill_colour">
        <dia:color val="#ffffff"/>
      </dia:attribute>
      <dia:attribute name="name">
        <dia:composite type="text">
          <dia:attribute name="string">
            <dia:string>#webcam#</dia:string>
          </dia:attribute>
          <dia:attribute name="font">
            <dia:font family="sans" style="0" name="Helvetica"/>
          </dia:attribute>
          <dia:attribute name="height">
            <dia:real val="0.80000000000000004"/>
          </dia:attribute>
          <dia:attribute name="pos">
            <dia:point val="17.5,26.095"/>
          </dia:attribute>
          <dia:attribute name="color">
            <dia:color val="#000000"/>
          </dia:attribute>
          <dia:attribute name="alignment">
            <dia:enum val="0"/>
          </dia:attribute>
        </dia:composite>
      </dia:attribute>
    </dia:object>
    <dia:object type="Standard - Line" version="0" id="O14">
      <dia:attribute name="obj_pos">
        <dia:point val="18.3278,20.5499"/>
      </dia:attribute>
      <dia:attribute name="obj_bb">
        <dia:rectangle val="18.2732,20.4953;19.0069,24.5618"/>
      </dia:attribute>
      <dia:attribute name="conn_endpoints">
        <dia:point val="18.3278,20.5499"/>
        <dia:point val="18.7058,24.4505"/>
      </dia:attribute>
      <dia:attribute name="numcp">
        <dia:int val="1"/>
      </dia:attribute>
      <dia:attribute name="end_arrow">
        <dia:enum val="22"/>
      </dia:attribute>
      <dia:attribute name="end_arrow_length">
        <dia:real val="0.5"/>
      </dia:attribute>
      <dia:attribute name="end_arrow_width">
        <dia:real val="0.5"/>
      </dia:attribute>
      <dia:connections>
        <dia:connection handle="0" to="O6" connection="10"/>
        <dia:connection handle="1" to="O13" connection="8"/>
      </dia:connections>
    </dia:object>
    <dia:object type="UML - Component" version="0" id="O15">
      <dia:attribute name="obj_pos">
        <dia:point val="25,17"/>
      </dia:attribute>
      <dia:attribute name="obj_bb">
        <dia:rectangle val="24.95,16.95;31.435,20.55"/>
      </dia:attribute>
      <dia:attribute name="meta">
        <dia:composite type="dict"/>
      </dia:attribute>
      <dia:attribute name="elem_corner">
        <dia:point val="25,17"/>
      </dia:attribute>
      <dia:attribute name="elem_width">
        <dia:real val="6.3849999999999998"/>
      </dia:attribute>
      <dia:attribute name="elem_height">
        <dia:real val="3.5"/>
      </dia:attribute>
      <dia:attribute name="line_colour">
        <dia:color val="#000000"/>
      </dia:attribute>
      <dia:attribute name="fill_colour">
        <dia:color val="#ffffff"/>
      </dia:attribute>
      <dia:attribute name="stereotype">
        <dia:string>##</dia:string>
      </dia:attribute>
      <dia:attribute name="text">
        <dia:composite type="text">
          <dia:attribute name="string">
            <dia:string>#File system#</dia:string>
          </dia:attribute>
          <dia:attribute name="font">
            <dia:font family="sans" style="0" name="Helvetica"/>
          </dia:attribute>
          <dia:attribute name="height">
            <dia:real val="0.80000000000000004"/>
          </dia:attribute>
          <dia:attribute name="pos">
            <dia:point val="27.4,18.295"/>
          </dia:attribute>
          <dia:attribute name="color">
            <dia:color val="#000000"/>
          </dia:attribute>
          <dia:attribute name="alignment">
            <dia:enum val="0"/>
          </dia:attribute>
        </dia:composite>
      </dia:attribute>
    </dia:object>
    <dia:object type="Standard - Line" version="0" id="O16">
      <dia:attribute name="obj_pos">
        <dia:point val="22.4927,19.45"/>
      </dia:attribute>
      <dia:attribute name="obj_bb">
        <dia:rectangle val="22.4427,19.0882;25.0616,19.8118"/>
      </dia:attribute>
      <dia:attribute name="conn_endpoints">
        <dia:point val="22.4927,19.45"/>
        <dia:point val="24.9498,19.45"/>
      </dia:attribute>
      <dia:attribute name="numcp">
        <dia:int val="1"/>
      </dia:attribute>
      <dia:attribute name="end_arrow">
        <dia:enum val="22"/>
      </dia:attribute>
      <dia:attribute name="end_arrow_length">
        <dia:real val="0.5"/>
      </dia:attribute>
      <dia:attribute name="end_arrow_width">
        <dia:real val="0.5"/>
      </dia:attribute>
      <dia:connections>
        <dia:connection handle="0" to="O6" connection="10"/>
        <dia:connection handle="1" to="O15" connection="10"/>
      </dia:connections>
    </dia:object>
    <dia:object type="UML - Object" version="0" id="O17">
      <dia:attribute name="obj_pos">
        <dia:point val="48,-5.25"/>
      </dia:attribute>
      <dia:attribute name="obj_bb">
        <dia:rectangle val="47.95,-5.3;50.9025,-3.4"/>
      </dia:attribute>
      <dia:attribute name="meta">
        <dia:composite type="dict"/>
      </dia:attribute>
      <dia:attribute name="elem_corner">
        <dia:point val="48,-5.25"/>
      </dia:attribute>
      <dia:attribute name="elem_width">
        <dia:real val="2.8525"/>
      </dia:attribute>
      <dia:attribute name="elem_height">
        <dia:real val="1.7999999999999998"/>
      </dia:attribute>
      <dia:attribute name="line_width">
        <dia:real val="0.10000000000000001"/>
      </dia:attribute>
      <dia:attribute name="text_colour">
        <dia:color val="#000000"/>
      </dia:attribute>
      <dia:attribute name="line_colour">
        <dia:color val="#000000"/>
      </dia:attribute>
      <dia:attribute name="fill_colour">
        <dia:color val="#ffffff"/>
      </dia:attribute>
      <dia:attribute name="text">
        <dia:composite type="text">
          <dia:attribute name="string">
            <dia:string>#Client#</dia:string>
          </dia:attribute>
          <dia:attribute name="font">
            <dia:font family="sans" style="0" name="Helvetica"/>
          </dia:attribute>
          <dia:attribute name="height">
            <dia:real val="0.80000000000000004"/>
          </dia:attribute>
          <dia:attribute name="pos">
            <dia:point val="49.4263,-4.155"/>
          </dia:attribute>
          <dia:attribute name="color">
            <dia:color val="#000000"/>
          </dia:attribute>
          <dia:attribute name="alignment">
            <dia:enum val="1"/>
          </dia:attribute>
        </dia:composite>
      </dia:attribute>
      <dia:attribute name="stereotype">
        <dia:string>##</dia:string>
      </dia:attribute>
      <dia:attribute name="exstate">
        <dia:string>##</dia:string>
      </dia:attribute>
      <dia:attribute name="attrib">
        <dia:composite type="text">
          <dia:attribute name="string">
            <dia:string>##</dia:string>
          </dia:attribute>
          <dia:attribute name="font">
            <dia:font family="sans" style="0" name="Helvetica"/>
          </dia:attribute>
          <dia:attribute name="height">
            <dia:real val="0.80000000000000004"/>
          </dia:attribute>
          <dia:attribute name="pos">
            <dia:point val="0,0"/>
          </dia:attribute>
          <dia:attribute name="color">
            <dia:color val="#000000"/>
          </dia:attribute>
          <dia:attribute name="alignment">
            <dia:enum val="0"/>
          </dia:attribute>
        </dia:composite>
      </dia:attribute>
      <dia:attribute name="is_active">
        <dia:boolean val="false"/>
      </dia:attribute>
      <dia:attribute name="show_attribs">
        <dia:boolean val="false"/>
      </dia:attribute>
      <dia:attribute name="multiple">
        <dia:boolean val="false"/>
      </dia:attribute>
    </dia:object>
    <dia:object type="UML - Object" version="0" id="O18">
      <dia:attribute name="obj_pos">
        <dia:point val="59,-5.25"/>
      </dia:attribute>
      <dia:attribute name="obj_bb">
        <dia:rectangle val="58.95,-5.3;62.1525,-3.4"/>
      </dia:attribute>
      <dia:attribute name="meta">
        <dia:composite type="dict"/>
      </dia:attribute>
      <dia:attribute name="elem_corner">
        <dia:point val="59,-5.25"/>
      </dia:attribute>
      <dia:attribute name="elem_width">
        <dia:real val="3.1025"/>
      </dia:attribute>
      <dia:attribute name="elem_height">
        <dia:real val="1.7999999999999998"/>
      </dia:attribute>
      <dia:attribute name="line_width">
        <dia:real val="0.10000000000000001"/>
      </dia:attribute>
      <dia:attribute name="text_colour">
        <dia:color val="#000000"/>
      </dia:attribute>
      <dia:attribute name="line_colour">
        <dia:color val="#000000"/>
      </dia:attribute>
      <dia:attribute name="fill_colour">
        <dia:color val="#ffffff"/>
      </dia:attribute>
      <dia:attribute name="text">
        <dia:composite type="text">
          <dia:attribute name="string">
            <dia:string>#Server#</dia:string>
          </dia:attribute>
          <dia:attribute name="font">
            <dia:font family="sans" style="0" name="Helvetica"/>
          </dia:attribute>
          <dia:attribute name="height">
            <dia:real val="0.80000000000000004"/>
          </dia:attribute>
          <dia:attribute name="pos">
            <dia:point val="60.5513,-4.155"/>
          </dia:attribute>
          <dia:attribute name="color">
            <dia:color val="#000000"/>
          </dia:attribute>
          <dia:attribute name="alignment">
            <dia:enum val="1"/>
          </dia:attribute>
        </dia:composite>
      </dia:attribute>
      <dia:attribute name="stereotype">
        <dia:string>##</dia:string>
      </dia:attribute>
      <dia:attribute name="exstate">
        <dia:string>##</dia:string>
      </dia:attribute>
      <dia:attribute name="attrib">
        <dia:composite type="text">
          <dia:attribute name="string">
            <dia:string>##</dia:string>
          </dia:attribute>
          <dia:attribute name="font">
            <dia:font family="sans" style="0" name="Helvetica"/>
          </dia:attribute>
          <dia:attribute name="height">
            <dia:real val="0.80000000000000004"/>
          </dia:attribute>
          <dia:attribute name="pos">
            <dia:point val="0,0"/>
          </dia:attribute>
          <dia:attribute name="color">
            <dia:color val="#000000"/>
          </dia:attribute>
          <dia:attribute name="alignment">
            <dia:enum val="0"/>
          </dia:attribute>
        </dia:composite>
      </dia:attribute>
      <dia:attribute name="is_active">
        <dia:boolean val="false"/>
      </dia:attribute>
      <dia:attribute name="show_attribs">
        <dia:boolean val="false"/>
      </dia:attribute>
      <dia:attribute name="multiple">
        <dia:boolean val="false"/>
      </dia:attribute>
    </dia:object>
    <dia:object type="UML - Object" version="0" id="O19">
      <dia:attribute name="obj_pos">
        <dia:point val="70,-5.25"/>
      </dia:attribute>
      <dia:attribute name="obj_bb">
        <dia:rectangle val="69.95,-5.3;73.225,-3.4"/>
      </dia:attribute>
      <dia:attribute name="meta">
        <dia:composite type="dict"/>
      </dia:attribute>
      <dia:attribute name="elem_corner">
        <dia:point val="70,-5.25"/>
      </dia:attribute>
      <dia:attribute name="elem_width">
        <dia:real val="3.1749999999999998"/>
      </dia:attribute>
      <dia:attribute name="elem_height">
        <dia:real val="1.7999999999999998"/>
      </dia:attribute>
      <dia:attribute name="line_width">
        <dia:real val="0.10000000000000001"/>
      </dia:attribute>
      <dia:attribute name="text_colour">
        <dia:color val="#000000"/>
      </dia:attribute>
      <dia:attribute name="line_colour">
        <dia:color val="#000000"/>
      </dia:attribute>
      <dia:attribute name="fill_colour">
        <dia:color val="#ffffff"/>
      </dia:attribute>
      <dia:attribute name="text">
        <dia:composite type="text">
          <dia:attribute name="string">
            <dia:string>#Viewer#</dia:string>
          </dia:attribute>
          <dia:attribute name="font">
            <dia:font family="sans" style="0" name="Helvetica"/>
          </dia:attribute>
          <dia:attribute name="height">
            <dia:real val="0.80000000000000004"/>
          </dia:attribute>
          <dia:attribute name="pos">
            <dia:point val="71.5875,-4.155"/>
          </dia:attribute>
          <dia:attribute name="color">
            <dia:color val="#000000"/>
          </dia:attribute>
          <dia:attribute name="alignment">
            <dia:enum val="1"/>
          </dia:attribute>
        </dia:composite>
      </dia:attribute>
      <dia:attribute name="stereotype">
        <dia:string>##</dia:string>
      </dia:attribute>
      <dia:attribute name="exstate">
        <dia:string>##</dia:string>
      </dia:attribute>
      <dia:attribute name="attrib">
        <dia:composite type="text">
          <dia:attribute name="string">
            <dia:string>##</dia:string>
          </dia:attribute>
          <dia:attribute name="font">
            <dia:font family="sans" style="0" name="Helvetica"/>
          </dia:attribute>
          <dia:attribute name="height">
            <dia:real val="0.80000000000000004"/>
          </dia:attribute>
          <dia:attribute name="pos">
            <dia:point val="0,0"/>
          </dia:attribute>
          <dia:attribute name="color">
            <dia:color val="#000000"/>
          </dia:attribute>
          <dia:attribute name="alignment">
            <dia:enum val="0"/>
          </dia:attribute>
        </dia:composite>
      </dia:attribute>
      <dia:attribute name="is_active">
        <dia:boolean val="false"/>
      </dia:attribute>
      <dia:attribute name="show_attribs">
        <dia:boolean val="false"/>
      </dia:attribute>
      <dia:attribute name="multiple">
        <dia:boolean val="false"/>
      </dia:attribute>
    </dia:object>
    <dia:object type="UML - Lifeline" version="0" id="O20">
      <dia:attribute name="obj_pos">
        <dia:point val="49.4263,-3.45"/>
      </dia:attribute>
      <dia:attribute name="obj_bb">
        <dia:rectangle val="49.0263,-3.475;49.8263,8.775"/>
      </dia:attribute>
      <dia:attribute name="meta">
        <dia:composite type="dict"/>
      </dia:attribute>
      <dia:attribute name="conn_endpoints">
        <dia:point val="49.4263,-3.45"/>
        <dia:point val="49.4263,8.75"/>
      </dia:attribute>
      <dia:attribute name="line_colour">
        <dia:color val="#000000"/>
      </dia:attribute>
      <dia:attribute name="fill_colour">
        <dia:color val="#ffffff"/>
      </dia:attribute>
      <dia:attribute name="rtop">
        <dia:real val="1.2"/>
      </dia:attribute>
      <dia:attribute name="rbot">
        <dia:real val="11.199999999999999"/>
      </dia:attribute>
      <dia:attribute name="draw_focus">
        <dia:boolean val="true"/>
      </dia:attribute>
      <dia:attribute name="draw_cross">
        <dia:boolean val="false"/>
      </dia:attribute>
      <dia:attribute name="cpl_northwest">
        <dia:int val="4"/>
      </dia:attribute>
      <dia:attribute name="cpl_southwest">
        <dia:int val="4"/>
      </dia:attribute>
      <dia:attribute name="cpl_northeast">
        <dia:int val="4"/>
      </dia:attribute>
      <dia:attribute name="cpl_southeast">
        <dia:int val="4"/>
      </dia:attribute>
      <dia:connections>
        <dia:connection handle="0" to="O17" connection="6"/>
      </dia:connections>
    </dia:object>
    <dia:object type="UML - Lifeline" version="0" id="O21">
      <dia:attribute name="obj_pos">
        <dia:point val="60.5512,-3.45"/>
      </dia:attribute>
      <dia:attribute name="obj_bb">
        <dia:rectangle val="60.1512,-3.475;60.9512,8.775"/>
      </dia:attribute>
      <dia:attribute name="meta">
        <dia:composite type="dict"/>
      </dia:attribute>
      <dia:attribute name="conn_endpoints">
        <dia:point val="60.5512,-3.45"/>
        <dia:point val="60.5512,8.75"/>
      </dia:attribute>
      <dia:attribute name="line_colour">
        <dia:color val="#000000"/>
      </dia:attribute>
      <dia:attribute name="fill_colour">
        <dia:color val="#ffffff"/>
      </dia:attribute>
      <dia:attribute name="rtop">
        <dia:real val="1.2"/>
      </dia:attribute>
      <dia:attribute name="rbot">
        <dia:real val="11.199999999999999"/>
      </dia:attribute>
      <dia:attribute name="draw_focus">
        <dia:boolean val="true"/>
      </dia:attribute>
      <dia:attribute name="draw_cross">
        <dia:boolean val="false"/>
      </dia:attribute>
      <dia:attribute name="cpl_northwest">
        <dia:int val="4"/>
      </dia:attribute>
      <dia:attribute name="cpl_southwest">
        <dia:int val="4"/>
      </dia:attribute>
      <dia:attribute name="cpl_northeast">
        <dia:int val="4"/>
      </dia:attribute>
      <dia:attribute name="cpl_southeast">
        <dia:int val="4"/>
      </dia:attribute>
      <dia:connections>
        <dia:connection handle="0" to="O18" connection="6"/>
      </dia:connections>
    </dia:object>
    <dia:object type="UML - Lifeline" version="0" id="O22">
      <dia:attribute name="obj_pos">
        <dia:point val="71.5875,-3.45"/>
      </dia:attribute>
      <dia:attribute name="obj_bb">
        <dia:rectangle val="71.1875,-3.475;71.9875,8.775"/>
      </dia:attribute>
      <dia:attribute name="meta">
        <dia:composite type="dict"/>
      </dia:attribute>
      <dia:attribute name="conn_endpoints">
        <dia:point val="71.5875,-3.45"/>
        <dia:point val="71.5875,8.75"/>
      </dia:attribute>
      <dia:attribute name="line_colour">
        <dia:color val="#000000"/>
      </dia:attribute>
      <dia:attribute name="fill_colour">
        <dia:color val="#ffffff"/>
      </dia:attribute>
      <dia:attribute name="rtop">
        <dia:real val="3.2000000000000002"/>
      </dia:attribute>
      <dia:attribute name="rbot">
        <dia:real val="11.199999999999999"/>
      </dia:attribute>
      <dia:attribute name="draw_focus">
        <dia:boolean val="true"/>
      </dia:attribute>
      <dia:attribute name="draw_cross">
        <dia:boolean val="false"/>
      </dia:attribute>
      <dia:attribute name="cpl_northwest">
        <dia:int val="3"/>
      </dia:attribute>
      <dia:attribute name="cpl_southwest">
        <dia:int val="3"/>
      </dia:attribute>
      <dia:attribute name="cpl_northeast">
        <dia:int val="3"/>
      </dia:attribute>
      <dia:attribute name="cpl_southeast">
        <dia:int val="3"/>
      </dia:attribute>
      <dia:connections>
        <dia:connection handle="0" to="O19" connection="6"/>
      </dia:connections>
    </dia:object>
    <dia:object type="Standard - Line" version="0" id="O23">
      <dia:attribute name="obj_pos">
        <dia:point val="49.7763,-2.25"/>
      </dia:attribute>
      <dia:attribute name="obj_bb">
        <dia:rectangle val="49.7263,-2.6118;60.313,-1.8882"/>
      </dia:attribute>
      <dia:attribute name="conn_endpoints">
        <dia:point val="49.7763,-2.25"/>
        <dia:point val="60.2012,-2.25"/>
      </dia:attribute>
      <dia:attribute name="numcp">
        <dia:int val="1"/>
      </dia:attribute>
      <dia:attribute name="end_arrow">
        <dia:enum val="22"/>
      </dia:attribute>
      <dia:attribute name="end_arrow_length">
        <dia:real val="0.5"/>
      </dia:attribute>
      <dia:attribute name="end_arrow_width">
        <dia:real val="0.5"/>
      </dia:attribute>
      <dia:connections>
        <dia:connection handle="0" to="O20" connection="1"/>
        <dia:connection handle="1" to="O21" connection="0"/>
      </dia:connections>
    </dia:object>
    <dia:object type="Standard - Text" version="1" id="O24">
      <dia:attribute name="obj_pos">
        <dia:point val="53.3,-3.4"/>
      </dia:attribute>
      <dia:attribute name="obj_bb">
        <dia:rectangle val="53.3,-3.995;57.0375,-2.4475"/>
      </dia:attribute>
      <dia:attribute name="text">
        <dia:composite type="text">
          <dia:attribute name="string">
            <dia:string>#HTTP GET
command ?#</dia:string>
          </dia:attribute>
          <dia:attribute name="font">
            <dia:font family="sans" style="0" name="Helvetica"/>
          </dia:attribute>
          <dia:attribute name="height">
            <dia:real val="0.80000000000000004"/>
          </dia:attribute>
          <dia:attribute name="pos">
            <dia:point val="53.3,-3.4"/>
          </dia:attribute>
          <dia:attribute name="color">
            <dia:color val="#000000"/>
          </dia:attribute>
          <dia:attribute name="alignment">
            <dia:enum val="0"/>
          </dia:attribute>
        </dia:composite>
      </dia:attribute>
      <dia:attribute name="valign">
        <dia:enum val="3"/>
      </dia:attribute>
    </dia:object>
    <dia:object type="Standard - Line" version="0" id="O25">
      <dia:attribute name="obj_pos">
        <dia:point val="71.2375,-0.25"/>
      </dia:attribute>
      <dia:attribute name="obj_bb">
        <dia:rectangle val="60.7894,-0.611803;71.2875,0.111803"/>
      </dia:attribute>
      <dia:attribute name="conn_endpoints">
        <dia:point val="71.2375,-0.25"/>
        <dia:point val="60.9012,-0.25"/>
      </dia:attribute>
      <dia:attribute name="numcp">
        <dia:int val="1"/>
      </dia:attribute>
      <dia:attribute name="end_arrow">
        <dia:enum val="22"/>
      </dia:attribute>
      <dia:attribute name="end_arrow_length">
        <dia:real val="0.5"/>
      </dia:attribute>
      <dia:attribute name="end_arrow_width">
        <dia:real val="0.5"/>
      </dia:attribute>
      <dia:connections>
        <dia:connection handle="0" to="O22" connection="0"/>
        <dia:connection handle="1" to="O21" connection="16"/>
      </dia:connections>
    </dia:object>
    <dia:object type="Standard - Text" version="1" id="O26">
      <dia:attribute name="obj_pos">
        <dia:point val="65,-1.25"/>
      </dia:attribute>
      <dia:attribute name="obj_bb">
        <dia:rectangle val="65,-1.845;68.13,-0.2975"/>
      </dia:attribute>
      <dia:attribute name="text">
        <dia:composite type="text">
          <dia:attribute name="string">
            <dia:string>#HTTP GET
update#</dia:string>
          </dia:attribute>
          <dia:attribute name="font">
            <dia:font family="sans" style="0" name="Helvetica"/>
          </dia:attribute>
          <dia:attribute name="height">
            <dia:real val="0.80000000000000004"/>
          </dia:attribute>
          <dia:attribute name="pos">
            <dia:point val="65,-1.25"/>
          </dia:attribute>
          <dia:attribute name="color">
            <dia:color val="#000000"/>
          </dia:attribute>
          <dia:attribute name="alignment">
            <dia:enum val="0"/>
          </dia:attribute>
        </dia:composite>
      </dia:attribute>
      <dia:attribute name="valign">
        <dia:enum val="3"/>
      </dia:attribute>
    </dia:object>
    <dia:object type="Standard - Line" version="0" id="O27">
      <dia:attribute name="obj_pos">
        <dia:point val="60.2012,0.75"/>
      </dia:attribute>
      <dia:attribute name="obj_bb">
        <dia:rectangle val="49.6645,0.388197;60.2512,1.1118"/>
      </dia:attribute>
      <dia:attribute name="conn_endpoints">
        <dia:point val="60.2012,0.75"/>
        <dia:point val="49.7763,0.75"/>
      </dia:attribute>
      <dia:attribute name="numcp">
        <dia:int val="1"/>
      </dia:attribute>
      <dia:attribute name="end_arrow">
        <dia:enum val="22"/>
      </dia:attribute>
      <dia:attribute name="end_arrow_length">
        <dia:real val="0.5"/>
      </dia:attribute>
      <dia:attribute name="end_arrow_width">
        <dia:real val="0.5"/>
      </dia:attribute>
      <dia:connections>
        <dia:connection handle="0" to="O21" connection="9"/>
        <dia:connection handle="1" to="O20" connection="17"/>
      </dia:connections>
    </dia:object>
    <dia:object type="Standard - Text" version="1" id="O28">
      <dia:attribute name="obj_pos">
        <dia:point val="53.45,-0.3"/>
      </dia:attribute>
      <dia:attribute name="obj_bb">
        <dia:rectangle val="53.45,-0.895;56.645,0.6525"/>
      </dia:attribute>
      <dia:attribute name="text">
        <dia:composite type="text">
          <dia:attribute name="string">
            <dia:string>#command
update#</dia:string>
          </dia:attribute>
          <dia:attribute name="font">
            <dia:font family="sans" style="0" name="Helvetica"/>
          </dia:attribute>
          <dia:attribute name="height">
            <dia:real val="0.80000000000000004"/>
          </dia:attribute>
          <dia:attribute name="pos">
            <dia:point val="53.45,-0.3"/>
          </dia:attribute>
          <dia:attribute name="color">
            <dia:color val="#000000"/>
          </dia:attribute>
          <dia:attribute name="alignment">
            <dia:enum val="0"/>
          </dia:attribute>
        </dia:composite>
      </dia:attribute>
      <dia:attribute name="valign">
        <dia:enum val="3"/>
      </dia:attribute>
    </dia:object>
    <dia:object type="Standard - Arc" version="0" id="O29">
      <dia:attribute name="obj_pos">
        <dia:point val="49.7763,1.75"/>
      </dia:attribute>
      <dia:attribute name="obj_bb">
        <dia:rectangle val="49.7263,1.67082;51.0988,4.27262"/>
      </dia:attribute>
      <dia:attribute name="conn_endpoints">
        <dia:point val="49.7763,1.75"/>
        <dia:point val="49.7763,3.75"/>
      </dia:attribute>
      <dia:attribute name="curve_distance">
        <dia:real val="-1.2725000000000009"/>
      </dia:attribute>
      <dia:attribute name="end_arrow">
        <dia:enum val="22"/>
      </dia:attribute>
      <dia:attribute name="end_arrow_length">
        <dia:real val="0.5"/>
      </dia:attribute>
      <dia:attribute name="end_arrow_width">
        <dia:real val="0.5"/>
      </dia:attribute>
      <dia:connections>
        <dia:connection handle="0" to="O20" connection="18"/>
        <dia:connection handle="1" to="O20" connection="19"/>
      </dia:connections>
    </dia:object>
    <dia:object type="Standard - Text" version="1" id="O30">
      <dia:attribute name="obj_pos">
        <dia:point val="51.3,2.9"/>
      </dia:attribute>
      <dia:attribute name="obj_bb">
        <dia:rectangle val="51.3,2.305;53.5575,3.0525"/>
      </dia:attribute>
      <dia:attribute name="text">
        <dia:composite type="text">
          <dia:attribute name="string">
            <dia:string>#update#</dia:string>
          </dia:attribute>
          <dia:attribute name="font">
            <dia:font family="sans" style="0" name="Helvetica"/>
          </dia:attribute>
          <dia:attribute name="height">
            <dia:real val="0.80000000000000004"/>
          </dia:attribute>
          <dia:attribute name="pos">
            <dia:point val="51.3,2.9"/>
          </dia:attribute>
          <dia:attribute name="color">
            <dia:color val="#000000"/>
          </dia:attribute>
          <dia:attribute name="alignment">
            <dia:enum val="0"/>
          </dia:attribute>
        </dia:composite>
      </dia:attribute>
      <dia:attribute name="valign">
        <dia:enum val="3"/>
      </dia:attribute>
    </dia:object>
    <dia:object type="Standard - Line" version="0" id="O31">
      <dia:attribute name="obj_pos">
        <dia:point val="49.7763,4.75"/>
      </dia:attribute>
      <dia:attribute name="obj_bb">
        <dia:rectangle val="49.7263,4.3882;60.313,5.1118"/>
      </dia:attribute>
      <dia:attribute name="conn_endpoints">
        <dia:point val="49.7763,4.75"/>
        <dia:point val="60.2012,4.75"/>
      </dia:attribute>
      <dia:attribute name="numcp">
        <dia:int val="1"/>
      </dia:attribute>
      <dia:attribute name="end_arrow">
        <dia:enum val="22"/>
      </dia:attribute>
      <dia:attribute name="end_arrow_length">
        <dia:real val="0.5"/>
      </dia:attribute>
      <dia:attribute name="end_arrow_width">
        <dia:real val="0.5"/>
      </dia:attribute>
      <dia:connections>
        <dia:connection handle="0" to="O20" connection="20"/>
        <dia:connection handle="1" to="O21" connection="12"/>
      </dia:connections>
    </dia:object>
    <dia:object type="Standard - Text" version="1" id="O32">
      <dia:attribute name="obj_pos">
        <dia:point val="54.9,3.7"/>
      </dia:attribute>
      <dia:attribute name="obj_bb">
        <dia:rectangle val="54.9,3.105;58.4275,4.6525"/>
      </dia:attribute>
      <dia:attribute name="text">
        <dia:composite type="text">
          <dia:attribute name="string">
            <dia:string>#HTTP POST
new fb#</dia:string>
          </dia:attribute>
          <dia:attribute name="font">
            <dia:font family="sans" style="0" name="Helvetica"/>
          </dia:attribute>
          <dia:attribute name="height">
            <dia:real val="0.80000000000000004"/>
          </dia:attribute>
          <dia:attribute name="pos">
            <dia:point val="54.9,3.7"/>
          </dia:attribute>
          <dia:attribute name="color">
            <dia:color val="#000000"/>
          </dia:attribute>
          <dia:attribute name="alignment">
            <dia:enum val="0"/>
          </dia:attribute>
        </dia:composite>
      </dia:attribute>
      <dia:attribute name="valign">
        <dia:enum val="3"/>
      </dia:attribute>
    </dia:object>
    <dia:object type="Standard - Line" version="0" id="O33">
      <dia:attribute name="obj_pos">
        <dia:point val="60.9012,5.75"/>
      </dia:attribute>
      <dia:attribute name="obj_bb">
        <dia:rectangle val="60.8512,5.3882;71.3493,6.1118"/>
      </dia:attribute>
      <dia:attribute name="conn_endpoints">
        <dia:point val="60.9012,5.75"/>
        <dia:point val="71.2375,5.75"/>
      </dia:attribute>
      <dia:attribute name="numcp">
        <dia:int val="1"/>
      </dia:attribute>
      <dia:attribute name="end_arrow">
        <dia:enum val="22"/>
      </dia:attribute>
      <dia:attribute name="end_arrow_length">
        <dia:real val="0.5"/>
      </dia:attribute>
      <dia:attribute name="end_arrow_width">
        <dia:real val="0.5"/>
      </dia:attribute>
      <dia:connections>
        <dia:connection handle="0" to="O21" connection="21"/>
        <dia:connection handle="1" to="O22" connection="11"/>
      </dia:connections>
    </dia:object>
    <dia:object type="Standard - Text" version="1" id="O34">
      <dia:attribute name="obj_pos">
        <dia:point val="65,5.25"/>
      </dia:attribute>
      <dia:attribute name="obj_bb">
        <dia:rectangle val="65,4.655;67.1575,5.4025"/>
      </dia:attribute>
      <dia:attribute name="text">
        <dia:composite type="text">
          <dia:attribute name="string">
            <dia:string>#new fb#</dia:string>
          </dia:attribute>
          <dia:attribute name="font">
            <dia:font family="sans" style="0" name="Helvetica"/>
          </dia:attribute>
          <dia:attribute name="height">
            <dia:real val="0.80000000000000004"/>
          </dia:attribute>
          <dia:attribute name="pos">
            <dia:point val="65,5.25"/>
          </dia:attribute>
          <dia:attribute name="color">
            <dia:color val="#000000"/>
          </dia:attribute>
          <dia:attribute name="alignment">
            <dia:enum val="0"/>
          </dia:attribute>
        </dia:composite>
      </dia:attribute>
      <dia:attribute name="valign">
        <dia:enum val="3"/>
      </dia:attribute>
    </dia:object>
    <dia:object type="Standard - Line" version="0" id="O35">
      <dia:attribute name="obj_pos">
        <dia:point val="60.2012,6.75"/>
      </dia:attribute>
      <dia:attribute name="obj_bb">
        <dia:rectangle val="49.6645,6.3882;60.2512,7.1118"/>
      </dia:attribute>
      <dia:attribute name="conn_endpoints">
        <dia:point val="60.2012,6.75"/>
        <dia:point val="49.7763,6.75"/>
      </dia:attribute>
      <dia:attribute name="numcp">
        <dia:int val="1"/>
      </dia:attribute>
      <dia:attribute name="end_arrow">
        <dia:enum val="22"/>
      </dia:attribute>
      <dia:attribute name="end_arrow_length">
        <dia:real val="0.5"/>
      </dia:attribute>
      <dia:attribute name="end_arrow_width">
        <dia:real val="0.5"/>
      </dia:attribute>
      <dia:connections>
        <dia:connection handle="0" to="O21" connection="14"/>
        <dia:connection handle="1" to="O20" connection="22"/>
      </dia:connections>
    </dia:object>
  </dia:layer>
</dia:diagram>
