<?xml version="1.0" encoding="UTF-8"?>
<dia:diagram xmlns:dia="http://www.lysator.liu.se/~alla/dia/">
  <dia:diagramdata>
    <dia:attribute name="background">
      <dia:color val="#ffffffff"/>
    </dia:attribute>
    <dia:attribute name="pagebreak">
      <dia:color val="#000099ff"/>
    </dia:attribute>
    <dia:attribute name="paper">
      <dia:composite type="paper">
        <dia:attribute name="name">
          <dia:string>#A4#</dia:string>
        </dia:attribute>
        <dia:attribute name="tmargin">
          <dia:real val="0.5"/>
        </dia:attribute>
        <dia:attribute name="bmargin">
          <dia:real val="0.5"/>
        </dia:attribute>
        <dia:attribute name="lmargin">
          <dia:real val="0.5"/>
        </dia:attribute>
        <dia:attribute name="rmargin">
          <dia:real val="0.5"/>
        </dia:attribute>
        <dia:attribute name="is_portrait">
          <dia:boolean val="false"/>
        </dia:attribute>
        <dia:attribute name="scaling">
          <dia:real val="0.47999998927116394"/>
        </dia:attribute>
        <dia:attribute name="fitto">
          <dia:boolean val="false"/>
        </dia:attribute>
      </dia:composite>
    </dia:attribute>
    <dia:attribute name="grid">
      <dia:composite type="grid">
        <dia:attribute name="dynamic">
          <dia:boolean val="true"/>
        </dia:attribute>
        <dia:attribute name="width_x">
          <dia:real val="1"/>
        </dia:attribute>
        <dia:attribute name="width_y">
          <dia:real val="1"/>
        </dia:attribute>
        <dia:attribute name="visible_x">
          <dia:int val="1"/>
        </dia:attribute>
        <dia:attribute name="visible_y">
          <dia:int val="1"/>
        </dia:attribute>
        <dia:composite type="color"/>
      </dia:composite>
    </dia:attribute>
    <dia:attribute name="color">
      <dia:color val="#d8e5e5ff"/>
    </dia:attribute>
    <dia:attribute name="guides">
      <dia:composite type="guides">
        <dia:attribute name="hguides"/>
        <dia:attribute name="vguides"/>
      </dia:composite>
    </dia:attribute>
    <dia:attribute name="display">
      <dia:composite type="display">
        <dia:attribute name="antialiased">
          <dia:boolean val="true"/>
        </dia:attribute>
        <dia:attribute name="snap-to-grid">
          <dia:boolean val="false"/>
        </dia:attribute>
        <dia:attribute name="snap-to-object">
          <dia:boolean val="true"/>
        </dia:attribute>
        <dia:attribute name="show-grid">
          <dia:boolean val="true"/>
        </dia:attribute>
        <dia:attribute name="show-connection-points">
          <dia:boolean val="false"/>
        </dia:attribute>
      </dia:composite>
    </dia:attribute>
  </dia:diagramdata>
  <dia:layer name="Background" visible="true" connectable="true" active="true">
    <dia:object type="Standard - Box" version="0" id="O0">
      <dia:attribute name="obj_pos">
        <dia:point val="4,25"/>
      </dia:attribute>
      <dia:attribute name="obj_bb">
        <dia:rectangle val="3.95,24.95;27.05,41.05"/>
      </dia:attribute>
      <dia:attribute name="elem_corner">
        <dia:point val="4,25"/>
      </dia:attribute>
      <dia:attribute name="elem_width">
        <dia:real val="23"/>
      </dia:attribute>
      <dia:attribute name="elem_height">
        <dia:real val="16"/>
      </dia:attribute>
      <dia:attribute name="show_background">
        <dia:boolean val="true"/>
      </dia:attribute>
    </dia:object>
    <dia:object type="Standard - Box" version="0" id="O1">
      <dia:attribute name="obj_pos">
        <dia:point val="15,2"/>
      </dia:attribute>
      <dia:attribute name="obj_bb">
        <dia:rectangle val="14.95,1.95;43.05,21.05"/>
      </dia:attribute>
      <dia:attribute name="elem_corner">
        <dia:point val="15,2"/>
      </dia:attribute>
      <dia:attribute name="elem_width">
        <dia:real val="28"/>
      </dia:attribute>
      <dia:attribute name="elem_height">
        <dia:real val="19"/>
      </dia:attribute>
      <dia:attribute name="show_background">
        <dia:boolean val="true"/>
      </dia:attribute>
    </dia:object>
    <dia:object type="Flowchart - Box" version="0" id="O2">
      <dia:attribute name="obj_pos">
        <dia:point val="18,3"/>
      </dia:attribute>
      <dia:attribute name="obj_bb">
        <dia:rectangle val="17.95,2.95;24.05,4.95"/>
      </dia:attribute>
      <dia:attribute name="elem_corner">
        <dia:point val="18,3"/>
      </dia:attribute>
      <dia:attribute name="elem_width">
        <dia:real val="6"/>
      </dia:attribute>
      <dia:attribute name="elem_height">
        <dia:real val="1.9000000000000004"/>
      </dia:attribute>
      <dia:attribute name="show_background">
        <dia:boolean val="true"/>
      </dia:attribute>
      <dia:attribute name="padding">
        <dia:real val="0.5"/>
      </dia:attribute>
      <dia:attribute name="text">
        <dia:composite type="text">
          <dia:attribute name="string">
            <dia:string>#NetHelpTunnel#</dia:string>
          </dia:attribute>
          <dia:attribute name="font">
            <dia:font family="sans" style="0" name="Helvetica"/>
          </dia:attribute>
          <dia:attribute name="height">
            <dia:real val="0.80000000000000004"/>
          </dia:attribute>
          <dia:attribute name="pos">
            <dia:point val="21,4.145"/>
          </dia:attribute>
          <dia:attribute name="color">
            <dia:color val="#000000ff"/>
          </dia:attribute>
          <dia:attribute name="alignment">
            <dia:enum val="1"/>
          </dia:attribute>
        </dia:composite>
      </dia:attribute>
    </dia:object>
    <dia:object type="Flowchart - Box" version="0" id="O3">
      <dia:attribute name="obj_pos">
        <dia:point val="34,3"/>
      </dia:attribute>
      <dia:attribute name="obj_bb">
        <dia:rectangle val="33.95,2.95;40.05,4.95"/>
      </dia:attribute>
      <dia:attribute name="elem_corner">
        <dia:point val="34,3"/>
      </dia:attribute>
      <dia:attribute name="elem_width">
        <dia:real val="6"/>
      </dia:attribute>
      <dia:attribute name="elem_height">
        <dia:real val="1.9000000000000004"/>
      </dia:attribute>
      <dia:attribute name="show_background">
        <dia:boolean val="true"/>
      </dia:attribute>
      <dia:attribute name="padding">
        <dia:real val="0.5"/>
      </dia:attribute>
      <dia:attribute name="text">
        <dia:composite type="text">
          <dia:attribute name="string">
            <dia:string>#NetHelpTunnel#</dia:string>
          </dia:attribute>
          <dia:attribute name="font">
            <dia:font family="sans" style="0" name="Helvetica"/>
          </dia:attribute>
          <dia:attribute name="height">
            <dia:real val="0.80000000000000004"/>
          </dia:attribute>
          <dia:attribute name="pos">
            <dia:point val="37,4.145"/>
          </dia:attribute>
          <dia:attribute name="color">
            <dia:color val="#000000ff"/>
          </dia:attribute>
          <dia:attribute name="alignment">
            <dia:enum val="1"/>
          </dia:attribute>
        </dia:composite>
      </dia:attribute>
    </dia:object>
    <dia:object type="Flowchart - Box" version="0" id="O4">
      <dia:attribute name="obj_pos">
        <dia:point val="18,10"/>
      </dia:attribute>
      <dia:attribute name="obj_bb">
        <dia:rectangle val="17.95,9.95;24.05,11.95"/>
      </dia:attribute>
      <dia:attribute name="elem_corner">
        <dia:point val="18,10"/>
      </dia:attribute>
      <dia:attribute name="elem_width">
        <dia:real val="6"/>
      </dia:attribute>
      <dia:attribute name="elem_height">
        <dia:real val="1.9000000000000004"/>
      </dia:attribute>
      <dia:attribute name="show_background">
        <dia:boolean val="true"/>
      </dia:attribute>
      <dia:attribute name="padding">
        <dia:real val="0.5"/>
      </dia:attribute>
      <dia:attribute name="text">
        <dia:composite type="text">
          <dia:attribute name="string">
            <dia:string>#HttpTunnel#</dia:string>
          </dia:attribute>
          <dia:attribute name="font">
            <dia:font family="sans" style="0" name="Helvetica"/>
          </dia:attribute>
          <dia:attribute name="height">
            <dia:real val="0.80000000000000004"/>
          </dia:attribute>
          <dia:attribute name="pos">
            <dia:point val="21,11.145"/>
          </dia:attribute>
          <dia:attribute name="color">
            <dia:color val="#000000ff"/>
          </dia:attribute>
          <dia:attribute name="alignment">
            <dia:enum val="1"/>
          </dia:attribute>
        </dia:composite>
      </dia:attribute>
    </dia:object>
    <dia:object type="Flowchart - Box" version="0" id="O5">
      <dia:attribute name="obj_pos">
        <dia:point val="34,10"/>
      </dia:attribute>
      <dia:attribute name="obj_bb">
        <dia:rectangle val="33.95,9.95;40.05,11.95"/>
      </dia:attribute>
      <dia:attribute name="elem_corner">
        <dia:point val="34,10"/>
      </dia:attribute>
      <dia:attribute name="elem_width">
        <dia:real val="6"/>
      </dia:attribute>
      <dia:attribute name="elem_height">
        <dia:real val="1.9000000000000004"/>
      </dia:attribute>
      <dia:attribute name="show_background">
        <dia:boolean val="true"/>
      </dia:attribute>
      <dia:attribute name="padding">
        <dia:real val="0.5"/>
      </dia:attribute>
      <dia:attribute name="text">
        <dia:composite type="text">
          <dia:attribute name="string">
            <dia:string>#HttpTunnel#</dia:string>
          </dia:attribute>
          <dia:attribute name="font">
            <dia:font family="sans" style="0" name="Helvetica"/>
          </dia:attribute>
          <dia:attribute name="height">
            <dia:real val="0.80000000000000004"/>
          </dia:attribute>
          <dia:attribute name="pos">
            <dia:point val="37,11.145"/>
          </dia:attribute>
          <dia:attribute name="color">
            <dia:color val="#000000ff"/>
          </dia:attribute>
          <dia:attribute name="alignment">
            <dia:enum val="1"/>
          </dia:attribute>
        </dia:composite>
      </dia:attribute>
    </dia:object>
    <dia:object type="Flowchart - Box" version="0" id="O6">
      <dia:attribute name="obj_pos">
        <dia:point val="18,17"/>
      </dia:attribute>
      <dia:attribute name="obj_bb">
        <dia:rectangle val="17.95,16.95;40.05,18.95"/>
      </dia:attribute>
      <dia:attribute name="elem_corner">
        <dia:point val="18,17"/>
      </dia:attribute>
      <dia:attribute name="elem_width">
        <dia:real val="22"/>
      </dia:attribute>
      <dia:attribute name="elem_height">
        <dia:real val="1.9000000014901162"/>
      </dia:attribute>
      <dia:attribute name="border_width">
        <dia:real val="0.10000000149011612"/>
      </dia:attribute>
      <dia:attribute name="show_background">
        <dia:boolean val="true"/>
      </dia:attribute>
      <dia:attribute name="padding">
        <dia:real val="0.5"/>
      </dia:attribute>
      <dia:attribute name="text">
        <dia:composite type="text">
          <dia:attribute name="string">
            <dia:string>#NetHelpServer#</dia:string>
          </dia:attribute>
          <dia:attribute name="font">
            <dia:font family="sans" style="0" name="Helvetica"/>
          </dia:attribute>
          <dia:attribute name="height">
            <dia:real val="0.80000000000000004"/>
          </dia:attribute>
          <dia:attribute name="pos">
            <dia:point val="29,18.145"/>
          </dia:attribute>
          <dia:attribute name="color">
            <dia:color val="#000000ff"/>
          </dia:attribute>
          <dia:attribute name="alignment">
            <dia:enum val="1"/>
          </dia:attribute>
        </dia:composite>
      </dia:attribute>
    </dia:object>
    <dia:object type="Standard - Line" version="0" id="O7">
      <dia:attribute name="obj_pos">
        <dia:point val="27.8569,16.9498"/>
      </dia:attribute>
      <dia:attribute name="obj_bb">
        <dia:rectangle val="22.0725,11.8796;27.9275,17.0204"/>
      </dia:attribute>
      <dia:attribute name="conn_endpoints">
        <dia:point val="27.8569,16.9498"/>
        <dia:point val="22.1431,11.9502"/>
      </dia:attribute>
      <dia:attribute name="numcp">
        <dia:int val="1"/>
      </dia:attribute>
      <dia:attribute name="line_color">
        <dia:color val="#49ce49ff"/>
      </dia:attribute>
      <dia:attribute name="end_arrow">
        <dia:enum val="22"/>
      </dia:attribute>
      <dia:attribute name="end_arrow_length">
        <dia:real val="0.5"/>
      </dia:attribute>
      <dia:attribute name="end_arrow_width">
        <dia:real val="0.5"/>
      </dia:attribute>
      <dia:connections>
        <dia:connection handle="0" to="O6" connection="16"/>
        <dia:connection handle="1" to="O4" connection="16"/>
      </dia:connections>
    </dia:object>
    <dia:object type="Standard - Text" version="1" id="O8">
      <dia:attribute name="obj_pos">
        <dia:point val="25,14.45"/>
      </dia:attribute>
      <dia:attribute name="obj_bb">
        <dia:rectangle val="25,13.855;28.655,14.6025"/>
      </dia:attribute>
      <dia:attribute name="text">
        <dia:composite type="text">
          <dia:attribute name="string">
            <dia:string># treatListen#</dia:string>
          </dia:attribute>
          <dia:attribute name="font">
            <dia:font family="sans" style="0" name="Helvetica"/>
          </dia:attribute>
          <dia:attribute name="height">
            <dia:real val="0.80000000000000004"/>
          </dia:attribute>
          <dia:attribute name="pos">
            <dia:point val="25,14.45"/>
          </dia:attribute>
          <dia:attribute name="color">
            <dia:color val="#000000ff"/>
          </dia:attribute>
          <dia:attribute name="alignment">
            <dia:enum val="0"/>
          </dia:attribute>
        </dia:composite>
      </dia:attribute>
      <dia:attribute name="valign">
        <dia:enum val="3"/>
      </dia:attribute>
      <dia:connections>
        <dia:connection handle="0" to="O7" connection="0"/>
      </dia:connections>
    </dia:object>
    <dia:object type="Standard - Line" version="0" id="O9">
      <dia:attribute name="obj_pos">
        <dia:point val="23.5,17"/>
      </dia:attribute>
      <dia:attribute name="obj_bb">
        <dia:rectangle val="21.3454,11.885;23.5653,17.0653"/>
      </dia:attribute>
      <dia:attribute name="conn_endpoints">
        <dia:point val="23.5,17"/>
        <dia:point val="21.4134,11.9503"/>
      </dia:attribute>
      <dia:attribute name="numcp">
        <dia:int val="1"/>
      </dia:attribute>
      <dia:attribute name="line_color">
        <dia:color val="#5c89b6ff"/>
      </dia:attribute>
      <dia:attribute name="end_arrow">
        <dia:enum val="22"/>
      </dia:attribute>
      <dia:attribute name="end_arrow_length">
        <dia:real val="0.5"/>
      </dia:attribute>
      <dia:attribute name="end_arrow_width">
        <dia:real val="0.5"/>
      </dia:attribute>
      <dia:connections>
        <dia:connection handle="0" to="O6" connection="1"/>
        <dia:connection handle="1" to="O4" connection="16"/>
      </dia:connections>
    </dia:object>
    <dia:object type="Standard - Text" version="1" id="O10">
      <dia:attribute name="obj_pos">
        <dia:point val="22.4567,14.4752"/>
      </dia:attribute>
      <dia:attribute name="obj_bb">
        <dia:rectangle val="17.4292,13.8802;22.4567,14.6277"/>
      </dia:attribute>
      <dia:attribute name="text">
        <dia:composite type="text">
          <dia:attribute name="string">
            <dia:string>#treatCommand #</dia:string>
          </dia:attribute>
          <dia:attribute name="font">
            <dia:font family="sans" style="0" name="Helvetica"/>
          </dia:attribute>
          <dia:attribute name="height">
            <dia:real val="0.80000000000000004"/>
          </dia:attribute>
          <dia:attribute name="pos">
            <dia:point val="22.4567,14.4752"/>
          </dia:attribute>
          <dia:attribute name="color">
            <dia:color val="#000000ff"/>
          </dia:attribute>
          <dia:attribute name="alignment">
            <dia:enum val="2"/>
          </dia:attribute>
        </dia:composite>
      </dia:attribute>
      <dia:attribute name="valign">
        <dia:enum val="3"/>
      </dia:attribute>
      <dia:connections>
        <dia:connection handle="0" to="O9" connection="0"/>
      </dia:connections>
    </dia:object>
    <dia:object type="Standard - Line" version="0" id="O11">
      <dia:attribute name="obj_pos">
        <dia:point val="30.1431,16.9498"/>
      </dia:attribute>
      <dia:attribute name="obj_bb">
        <dia:rectangle val="30.0725,11.8796;35.9275,17.0204"/>
      </dia:attribute>
      <dia:attribute name="conn_endpoints">
        <dia:point val="30.1431,16.9498"/>
        <dia:point val="35.8569,11.9502"/>
      </dia:attribute>
      <dia:attribute name="numcp">
        <dia:int val="1"/>
      </dia:attribute>
      <dia:attribute name="line_color">
        <dia:color val="#5c89b6ff"/>
      </dia:attribute>
      <dia:attribute name="end_arrow">
        <dia:enum val="22"/>
      </dia:attribute>
      <dia:attribute name="end_arrow_length">
        <dia:real val="0.5"/>
      </dia:attribute>
      <dia:attribute name="end_arrow_width">
        <dia:real val="0.5"/>
      </dia:attribute>
      <dia:connections>
        <dia:connection handle="0" to="O6" connection="16"/>
        <dia:connection handle="1" to="O5" connection="16"/>
      </dia:connections>
    </dia:object>
    <dia:object type="Standard - Line" version="0" id="O12">
      <dia:attribute name="obj_pos">
        <dia:point val="34.5,17"/>
      </dia:attribute>
      <dia:attribute name="obj_bb">
        <dia:rectangle val="34.4347,11.885;36.6546,17.0653"/>
      </dia:attribute>
      <dia:attribute name="conn_endpoints">
        <dia:point val="34.5,17"/>
        <dia:point val="36.5866,11.9503"/>
      </dia:attribute>
      <dia:attribute name="numcp">
        <dia:int val="1"/>
      </dia:attribute>
      <dia:attribute name="line_color">
        <dia:color val="#49ce49ff"/>
      </dia:attribute>
      <dia:attribute name="end_arrow">
        <dia:enum val="22"/>
      </dia:attribute>
      <dia:attribute name="end_arrow_length">
        <dia:real val="0.5"/>
      </dia:attribute>
      <dia:attribute name="end_arrow_width">
        <dia:real val="0.5"/>
      </dia:attribute>
      <dia:connections>
        <dia:connection handle="0" to="O6" connection="3"/>
        <dia:connection handle="1" to="O5" connection="16"/>
      </dia:connections>
    </dia:object>
    <dia:object type="Standard - Text" version="1" id="O13">
      <dia:attribute name="obj_pos">
        <dia:point val="33,14.45"/>
      </dia:attribute>
      <dia:attribute name="obj_bb">
        <dia:rectangle val="29.345,13.855;33,14.6025"/>
      </dia:attribute>
      <dia:attribute name="text">
        <dia:composite type="text">
          <dia:attribute name="string">
            <dia:string>#treatListen #</dia:string>
          </dia:attribute>
          <dia:attribute name="font">
            <dia:font family="sans" style="0" name="Helvetica"/>
          </dia:attribute>
          <dia:attribute name="height">
            <dia:real val="0.80000000000000004"/>
          </dia:attribute>
          <dia:attribute name="pos">
            <dia:point val="33,14.45"/>
          </dia:attribute>
          <dia:attribute name="color">
            <dia:color val="#000000ff"/>
          </dia:attribute>
          <dia:attribute name="alignment">
            <dia:enum val="2"/>
          </dia:attribute>
        </dia:composite>
      </dia:attribute>
      <dia:attribute name="valign">
        <dia:enum val="3"/>
      </dia:attribute>
      <dia:connections>
        <dia:connection handle="0" to="O11" connection="0"/>
      </dia:connections>
    </dia:object>
    <dia:object type="Standard - Text" version="1" id="O14">
      <dia:attribute name="obj_pos">
        <dia:point val="35.5433,14.4752"/>
      </dia:attribute>
      <dia:attribute name="obj_bb">
        <dia:rectangle val="35.5433,13.8802;40.7733,14.6277"/>
      </dia:attribute>
      <dia:attribute name="text">
        <dia:composite type="text">
          <dia:attribute name="string">
            <dia:string>#  treatCommand#</dia:string>
          </dia:attribute>
          <dia:attribute name="font">
            <dia:font family="sans" style="0" name="Helvetica"/>
          </dia:attribute>
          <dia:attribute name="height">
            <dia:real val="0.80000000000000004"/>
          </dia:attribute>
          <dia:attribute name="pos">
            <dia:point val="35.5433,14.4752"/>
          </dia:attribute>
          <dia:attribute name="color">
            <dia:color val="#000000ff"/>
          </dia:attribute>
          <dia:attribute name="alignment">
            <dia:enum val="0"/>
          </dia:attribute>
        </dia:composite>
      </dia:attribute>
      <dia:attribute name="valign">
        <dia:enum val="3"/>
      </dia:attribute>
      <dia:connections>
        <dia:connection handle="0" to="O12" connection="0"/>
      </dia:connections>
    </dia:object>
    <dia:object type="Standard - Text" version="1" id="O15">
      <dia:attribute name="obj_pos">
        <dia:point val="22.5,7.45"/>
      </dia:attribute>
      <dia:attribute name="obj_bb">
        <dia:rectangle val="22.5,6.855;24.31,7.6025"/>
      </dia:attribute>
      <dia:attribute name="text">
        <dia:composite type="text">
          <dia:attribute name="string">
            <dia:string># write#</dia:string>
          </dia:attribute>
          <dia:attribute name="font">
            <dia:font family="sans" style="0" name="Helvetica"/>
          </dia:attribute>
          <dia:attribute name="height">
            <dia:real val="0.80000000000000004"/>
          </dia:attribute>
          <dia:attribute name="pos">
            <dia:point val="22.5,7.45"/>
          </dia:attribute>
          <dia:attribute name="color">
            <dia:color val="#000000ff"/>
          </dia:attribute>
          <dia:attribute name="alignment">
            <dia:enum val="0"/>
          </dia:attribute>
        </dia:composite>
      </dia:attribute>
      <dia:attribute name="valign">
        <dia:enum val="3"/>
      </dia:attribute>
      <dia:connections>
        <dia:connection handle="0" to="O63" connection="0"/>
      </dia:connections>
    </dia:object>
    <dia:object type="Standard - Text" version="1" id="O16">
      <dia:attribute name="obj_pos">
        <dia:point val="35.5,7.45"/>
      </dia:attribute>
      <dia:attribute name="obj_bb">
        <dia:rectangle val="33.69,6.855;35.5,7.6025"/>
      </dia:attribute>
      <dia:attribute name="text">
        <dia:composite type="text">
          <dia:attribute name="string">
            <dia:string>#write #</dia:string>
          </dia:attribute>
          <dia:attribute name="font">
            <dia:font family="sans" style="0" name="Helvetica"/>
          </dia:attribute>
          <dia:attribute name="height">
            <dia:real val="0.80000000000000004"/>
          </dia:attribute>
          <dia:attribute name="pos">
            <dia:point val="35.5,7.45"/>
          </dia:attribute>
          <dia:attribute name="color">
            <dia:color val="#000000ff"/>
          </dia:attribute>
          <dia:attribute name="alignment">
            <dia:enum val="2"/>
          </dia:attribute>
        </dia:composite>
      </dia:attribute>
      <dia:attribute name="valign">
        <dia:enum val="3"/>
      </dia:attribute>
      <dia:connections>
        <dia:connection handle="0" to="O62" connection="0"/>
      </dia:connections>
    </dia:object>
    <dia:object type="Standard - PolyLine" version="0" id="O17">
      <dia:attribute name="obj_pos">
        <dia:point val="38.5,10"/>
      </dia:attribute>
      <dia:attribute name="obj_bb">
        <dia:rectangle val="38.0668,4.8452;38.8651,10.0551"/>
      </dia:attribute>
      <dia:attribute name="poly_points">
        <dia:point val="38.5,10"/>
        <dia:point val="38.8,7.25"/>
        <dia:point val="38.2,7.85"/>
        <dia:point val="38.5,4.9"/>
      </dia:attribute>
      <dia:attribute name="line_color">
        <dia:color val="#49ce49ff"/>
      </dia:attribute>
      <dia:attribute name="end_arrow">
        <dia:enum val="22"/>
      </dia:attribute>
      <dia:attribute name="end_arrow_length">
        <dia:real val="0.5"/>
      </dia:attribute>
      <dia:attribute name="end_arrow_width">
        <dia:real val="0.5"/>
      </dia:attribute>
      <dia:connections>
        <dia:connection handle="0" to="O5" connection="3"/>
        <dia:connection handle="3" to="O3" connection="14"/>
      </dia:connections>
    </dia:object>
    <dia:object type="Standard - Text" version="1" id="O18">
      <dia:attribute name="obj_pos">
        <dia:point val="39,7.2"/>
      </dia:attribute>
      <dia:attribute name="obj_bb">
        <dia:rectangle val="39,6.605;42.6375,7.3525"/>
      </dia:attribute>
      <dia:attribute name="text">
        <dia:composite type="text">
          <dia:attribute name="string">
            <dia:string># readyRead#</dia:string>
          </dia:attribute>
          <dia:attribute name="font">
            <dia:font family="sans" style="0" name="Helvetica"/>
          </dia:attribute>
          <dia:attribute name="height">
            <dia:real val="0.80000000000000004"/>
          </dia:attribute>
          <dia:attribute name="pos">
            <dia:point val="39,7.2"/>
          </dia:attribute>
          <dia:attribute name="color">
            <dia:color val="#000000ff"/>
          </dia:attribute>
          <dia:attribute name="alignment">
            <dia:enum val="0"/>
          </dia:attribute>
        </dia:composite>
      </dia:attribute>
      <dia:attribute name="valign">
        <dia:enum val="3"/>
      </dia:attribute>
    </dia:object>
    <dia:object type="Standard - PolyLine" version="0" id="O19">
      <dia:attribute name="obj_pos">
        <dia:point val="19.5,10"/>
      </dia:attribute>
      <dia:attribute name="obj_bb">
        <dia:rectangle val="19.059,4.84469;19.83,10.0546"/>
      </dia:attribute>
      <dia:attribute name="poly_points">
        <dia:point val="19.5,10"/>
        <dia:point val="19.7668,7.2412"/>
        <dia:point val="19.1668,7.8412"/>
        <dia:point val="19.5,4.9"/>
      </dia:attribute>
      <dia:attribute name="line_color">
        <dia:color val="#5c89b6ff"/>
      </dia:attribute>
      <dia:attribute name="end_arrow">
        <dia:enum val="22"/>
      </dia:attribute>
      <dia:attribute name="end_arrow_length">
        <dia:real val="0.5"/>
      </dia:attribute>
      <dia:attribute name="end_arrow_width">
        <dia:real val="0.5"/>
      </dia:attribute>
      <dia:connections>
        <dia:connection handle="0" to="O4" connection="1"/>
        <dia:connection handle="3" to="O2" connection="12"/>
      </dia:connections>
    </dia:object>
    <dia:object type="Standard - Text" version="1" id="O20">
      <dia:attribute name="obj_pos">
        <dia:point val="18.9,7.65"/>
      </dia:attribute>
      <dia:attribute name="obj_bb">
        <dia:rectangle val="15.2625,7.055;18.9,7.8025"/>
      </dia:attribute>
      <dia:attribute name="text">
        <dia:composite type="text">
          <dia:attribute name="string">
            <dia:string>#readyRead #</dia:string>
          </dia:attribute>
          <dia:attribute name="font">
            <dia:font family="sans" style="0" name="Helvetica"/>
          </dia:attribute>
          <dia:attribute name="height">
            <dia:real val="0.80000000000000004"/>
          </dia:attribute>
          <dia:attribute name="pos">
            <dia:point val="18.9,7.65"/>
          </dia:attribute>
          <dia:attribute name="color">
            <dia:color val="#000000ff"/>
          </dia:attribute>
          <dia:attribute name="alignment">
            <dia:enum val="2"/>
          </dia:attribute>
        </dia:composite>
      </dia:attribute>
      <dia:attribute name="valign">
        <dia:enum val="3"/>
      </dia:attribute>
    </dia:object>
    <dia:object type="chemengtmp - tank" version="1" id="O21">
      <dia:attribute name="obj_pos">
        <dia:point val="20,18"/>
      </dia:attribute>
      <dia:attribute name="obj_bb">
        <dia:rectangle val="19.9,17.9;22.1,20.1"/>
      </dia:attribute>
      <dia:attribute name="meta">
        <dia:composite type="dict"/>
      </dia:attribute>
      <dia:attribute name="elem_corner">
        <dia:point val="20,18"/>
      </dia:attribute>
      <dia:attribute name="elem_width">
        <dia:real val="2"/>
      </dia:attribute>
      <dia:attribute name="elem_height">
        <dia:real val="2"/>
      </dia:attribute>
      <dia:attribute name="line_width">
        <dia:real val="0.10000000149011612"/>
      </dia:attribute>
      <dia:attribute name="line_colour">
        <dia:color val="#000000ff"/>
      </dia:attribute>
      <dia:attribute name="fill_colour">
        <dia:color val="#ffffffff"/>
      </dia:attribute>
      <dia:attribute name="show_background">
        <dia:boolean val="true"/>
      </dia:attribute>
      <dia:attribute name="line_style">
        <dia:enum val="0"/>
        <dia:real val="1"/>
      </dia:attribute>
      <dia:attribute name="flip_horizontal">
        <dia:boolean val="false"/>
      </dia:attribute>
      <dia:attribute name="flip_vertical">
        <dia:boolean val="true"/>
      </dia:attribute>
      <dia:attribute name="subscale">
        <dia:real val="1"/>
      </dia:attribute>
    </dia:object>
    <dia:object type="chemengtmp - tank" version="1" id="O22">
      <dia:attribute name="obj_pos">
        <dia:point val="36,18"/>
      </dia:attribute>
      <dia:attribute name="obj_bb">
        <dia:rectangle val="35.9,17.9;38.1,20.1"/>
      </dia:attribute>
      <dia:attribute name="meta">
        <dia:composite type="dict"/>
      </dia:attribute>
      <dia:attribute name="elem_corner">
        <dia:point val="36,18"/>
      </dia:attribute>
      <dia:attribute name="elem_width">
        <dia:real val="2"/>
      </dia:attribute>
      <dia:attribute name="elem_height">
        <dia:real val="2"/>
      </dia:attribute>
      <dia:attribute name="line_width">
        <dia:real val="0.10000000149011612"/>
      </dia:attribute>
      <dia:attribute name="line_colour">
        <dia:color val="#000000ff"/>
      </dia:attribute>
      <dia:attribute name="fill_colour">
        <dia:color val="#ffffffff"/>
      </dia:attribute>
      <dia:attribute name="show_background">
        <dia:boolean val="true"/>
      </dia:attribute>
      <dia:attribute name="line_style">
        <dia:enum val="0"/>
        <dia:real val="1"/>
      </dia:attribute>
      <dia:attribute name="flip_horizontal">
        <dia:boolean val="false"/>
      </dia:attribute>
      <dia:attribute name="flip_vertical">
        <dia:boolean val="true"/>
      </dia:attribute>
      <dia:attribute name="subscale">
        <dia:real val="1"/>
      </dia:attribute>
    </dia:object>
    <dia:object type="Standard - Text" version="1" id="O23">
      <dia:attribute name="obj_pos">
        <dia:point val="22,20"/>
      </dia:attribute>
      <dia:attribute name="obj_bb">
        <dia:rectangle val="22,19.405;23.0175,20.1525"/>
      </dia:attribute>
      <dia:attribute name="text">
        <dia:composite type="text">
          <dia:attribute name="string">
            <dia:string># 80#</dia:string>
          </dia:attribute>
          <dia:attribute name="font">
            <dia:font family="sans" style="0" name="Helvetica"/>
          </dia:attribute>
          <dia:attribute name="height">
            <dia:real val="0.80000000000000004"/>
          </dia:attribute>
          <dia:attribute name="pos">
            <dia:point val="22,20"/>
          </dia:attribute>
          <dia:attribute name="color">
            <dia:color val="#000000ff"/>
          </dia:attribute>
          <dia:attribute name="alignment">
            <dia:enum val="0"/>
          </dia:attribute>
        </dia:composite>
      </dia:attribute>
      <dia:attribute name="valign">
        <dia:enum val="3"/>
      </dia:attribute>
      <dia:connections>
        <dia:connection handle="0" to="O21" connection="13"/>
      </dia:connections>
    </dia:object>
    <dia:object type="Standard - Text" version="1" id="O24">
      <dia:attribute name="obj_pos">
        <dia:point val="38,20"/>
      </dia:attribute>
      <dia:attribute name="obj_bb">
        <dia:rectangle val="38,19.405;39.0175,20.1525"/>
      </dia:attribute>
      <dia:attribute name="text">
        <dia:composite type="text">
          <dia:attribute name="string">
            <dia:string># 80#</dia:string>
          </dia:attribute>
          <dia:attribute name="font">
            <dia:font family="sans" style="0" name="Helvetica"/>
          </dia:attribute>
          <dia:attribute name="height">
            <dia:real val="0.80000000000000004"/>
          </dia:attribute>
          <dia:attribute name="pos">
            <dia:point val="38,20"/>
          </dia:attribute>
          <dia:attribute name="color">
            <dia:color val="#000000ff"/>
          </dia:attribute>
          <dia:attribute name="alignment">
            <dia:enum val="0"/>
          </dia:attribute>
        </dia:composite>
      </dia:attribute>
      <dia:attribute name="valign">
        <dia:enum val="3"/>
      </dia:attribute>
      <dia:connections>
        <dia:connection handle="0" to="O22" connection="13"/>
      </dia:connections>
    </dia:object>
    <dia:object type="Flowchart - Box" version="0" id="O25">
      <dia:attribute name="obj_pos">
        <dia:point val="18,26"/>
      </dia:attribute>
      <dia:attribute name="obj_bb">
        <dia:rectangle val="17.95,25.95;25.05,27.95"/>
      </dia:attribute>
      <dia:attribute name="elem_corner">
        <dia:point val="18,26"/>
      </dia:attribute>
      <dia:attribute name="elem_width">
        <dia:real val="7"/>
      </dia:attribute>
      <dia:attribute name="elem_height">
        <dia:real val="1.9000000000000004"/>
      </dia:attribute>
      <dia:attribute name="show_background">
        <dia:boolean val="true"/>
      </dia:attribute>
      <dia:attribute name="padding">
        <dia:real val="0.5"/>
      </dia:attribute>
      <dia:attribute name="text">
        <dia:composite type="text">
          <dia:attribute name="string">
            <dia:string>#HttpTunnelClient#</dia:string>
          </dia:attribute>
          <dia:attribute name="font">
            <dia:font family="sans" style="0" name="Helvetica"/>
          </dia:attribute>
          <dia:attribute name="height">
            <dia:real val="0.80000000000000004"/>
          </dia:attribute>
          <dia:attribute name="pos">
            <dia:point val="21.5,27.145"/>
          </dia:attribute>
          <dia:attribute name="color">
            <dia:color val="#000000ff"/>
          </dia:attribute>
          <dia:attribute name="alignment">
            <dia:enum val="1"/>
          </dia:attribute>
        </dia:composite>
      </dia:attribute>
    </dia:object>
    <dia:object type="Flowchart - Box" version="0" id="O26">
      <dia:attribute name="obj_pos">
        <dia:point val="10.8275,38"/>
      </dia:attribute>
      <dia:attribute name="obj_bb">
        <dia:rectangle val="10.7775,37.95;19.2225,39.95"/>
      </dia:attribute>
      <dia:attribute name="elem_corner">
        <dia:point val="10.8275,38"/>
      </dia:attribute>
      <dia:attribute name="elem_width">
        <dia:real val="8.3450000000000006"/>
      </dia:attribute>
      <dia:attribute name="elem_height">
        <dia:real val="1.9000000000000004"/>
      </dia:attribute>
      <dia:attribute name="show_background">
        <dia:boolean val="true"/>
      </dia:attribute>
      <dia:attribute name="padding">
        <dia:real val="0.5"/>
      </dia:attribute>
      <dia:attribute name="text">
        <dia:composite type="text">
          <dia:attribute name="string">
            <dia:string>#NetHelpEndPointClient#</dia:string>
          </dia:attribute>
          <dia:attribute name="font">
            <dia:font family="sans" style="0" name="Helvetica"/>
          </dia:attribute>
          <dia:attribute name="height">
            <dia:real val="0.80000000000000004"/>
          </dia:attribute>
          <dia:attribute name="pos">
            <dia:point val="15,39.145"/>
          </dia:attribute>
          <dia:attribute name="color">
            <dia:color val="#000000ff"/>
          </dia:attribute>
          <dia:attribute name="alignment">
            <dia:enum val="1"/>
          </dia:attribute>
        </dia:composite>
      </dia:attribute>
    </dia:object>
    <dia:object type="Flowchart - Box" version="0" id="O27">
      <dia:attribute name="obj_pos">
        <dia:point val="6,30"/>
      </dia:attribute>
      <dia:attribute name="obj_bb">
        <dia:rectangle val="5.95,29.95;12.05,31.95"/>
      </dia:attribute>
      <dia:attribute name="elem_corner">
        <dia:point val="6,30"/>
      </dia:attribute>
      <dia:attribute name="elem_width">
        <dia:real val="6"/>
      </dia:attribute>
      <dia:attribute name="elem_height">
        <dia:real val="1.9000000000000004"/>
      </dia:attribute>
      <dia:attribute name="show_background">
        <dia:boolean val="true"/>
      </dia:attribute>
      <dia:attribute name="padding">
        <dia:real val="0.5"/>
      </dia:attribute>
      <dia:attribute name="text">
        <dia:composite type="text">
          <dia:attribute name="string">
            <dia:string>#VncProxy#</dia:string>
          </dia:attribute>
          <dia:attribute name="font">
            <dia:font family="sans" style="0" name="Helvetica"/>
          </dia:attribute>
          <dia:attribute name="height">
            <dia:real val="0.80000000000000004"/>
          </dia:attribute>
          <dia:attribute name="pos">
            <dia:point val="9,31.145"/>
          </dia:attribute>
          <dia:attribute name="color">
            <dia:color val="#000000ff"/>
          </dia:attribute>
          <dia:attribute name="alignment">
            <dia:enum val="1"/>
          </dia:attribute>
        </dia:composite>
      </dia:attribute>
    </dia:object>
    <dia:object type="Flowchart - Box" version="0" id="O28">
      <dia:attribute name="obj_pos">
        <dia:point val="6,18"/>
      </dia:attribute>
      <dia:attribute name="obj_bb">
        <dia:rectangle val="5.95,17.95;12.05,21.95"/>
      </dia:attribute>
      <dia:attribute name="elem_corner">
        <dia:point val="6,18"/>
      </dia:attribute>
      <dia:attribute name="elem_width">
        <dia:real val="6"/>
      </dia:attribute>
      <dia:attribute name="elem_height">
        <dia:real val="3.9000000000000004"/>
      </dia:attribute>
      <dia:attribute name="show_background">
        <dia:boolean val="true"/>
      </dia:attribute>
      <dia:attribute name="padding">
        <dia:real val="0.5"/>
      </dia:attribute>
      <dia:attribute name="text">
        <dia:composite type="text">
          <dia:attribute name="string">
            <dia:string>#x11vnc#</dia:string>
          </dia:attribute>
          <dia:attribute name="font">
            <dia:font family="sans" style="0" name="Helvetica"/>
          </dia:attribute>
          <dia:attribute name="height">
            <dia:real val="0.80000000000000004"/>
          </dia:attribute>
          <dia:attribute name="pos">
            <dia:point val="9,20.145"/>
          </dia:attribute>
          <dia:attribute name="color">
            <dia:color val="#000000ff"/>
          </dia:attribute>
          <dia:attribute name="alignment">
            <dia:enum val="1"/>
          </dia:attribute>
        </dia:composite>
      </dia:attribute>
    </dia:object>
    <dia:object type="chemengtmp - tank" version="1" id="O29">
      <dia:attribute name="obj_pos">
        <dia:point val="8,21"/>
      </dia:attribute>
      <dia:attribute name="obj_bb">
        <dia:rectangle val="7.9,20.9;10.1,23.1"/>
      </dia:attribute>
      <dia:attribute name="meta">
        <dia:composite type="dict"/>
      </dia:attribute>
      <dia:attribute name="elem_corner">
        <dia:point val="8,21"/>
      </dia:attribute>
      <dia:attribute name="elem_width">
        <dia:real val="2"/>
      </dia:attribute>
      <dia:attribute name="elem_height">
        <dia:real val="2"/>
      </dia:attribute>
      <dia:attribute name="line_width">
        <dia:real val="0.10000000149011612"/>
      </dia:attribute>
      <dia:attribute name="line_colour">
        <dia:color val="#000000ff"/>
      </dia:attribute>
      <dia:attribute name="fill_colour">
        <dia:color val="#ffffffff"/>
      </dia:attribute>
      <dia:attribute name="show_background">
        <dia:boolean val="true"/>
      </dia:attribute>
      <dia:attribute name="line_style">
        <dia:enum val="0"/>
        <dia:real val="1"/>
      </dia:attribute>
      <dia:attribute name="flip_horizontal">
        <dia:boolean val="false"/>
      </dia:attribute>
      <dia:attribute name="flip_vertical">
        <dia:boolean val="true"/>
      </dia:attribute>
      <dia:attribute name="subscale">
        <dia:real val="1"/>
      </dia:attribute>
    </dia:object>
    <dia:object type="Standard - Text" version="1" id="O30">
      <dia:attribute name="obj_pos">
        <dia:point val="10,23"/>
      </dia:attribute>
      <dia:attribute name="obj_bb">
        <dia:rectangle val="10,22.405;11.8325,23.1525"/>
      </dia:attribute>
      <dia:attribute name="text">
        <dia:composite type="text">
          <dia:attribute name="string">
            <dia:string># 5900#</dia:string>
          </dia:attribute>
          <dia:attribute name="font">
            <dia:font family="sans" style="0" name="Helvetica"/>
          </dia:attribute>
          <dia:attribute name="height">
            <dia:real val="0.80000000000000004"/>
          </dia:attribute>
          <dia:attribute name="pos">
            <dia:point val="10,23"/>
          </dia:attribute>
          <dia:attribute name="color">
            <dia:color val="#000000ff"/>
          </dia:attribute>
          <dia:attribute name="alignment">
            <dia:enum val="0"/>
          </dia:attribute>
        </dia:composite>
      </dia:attribute>
      <dia:attribute name="valign">
        <dia:enum val="3"/>
      </dia:attribute>
      <dia:connections>
        <dia:connection handle="0" to="O29" connection="13"/>
      </dia:connections>
    </dia:object>
    <dia:object type="Standard - Line" version="0" id="O31">
      <dia:attribute name="obj_pos">
        <dia:point val="7.5,31.9"/>
      </dia:attribute>
      <dia:attribute name="obj_bb">
        <dia:rectangle val="7.43216,31.8322;10.8953,38.0678"/>
      </dia:attribute>
      <dia:attribute name="conn_endpoints">
        <dia:point val="7.5,31.9"/>
        <dia:point val="10.8275,38"/>
      </dia:attribute>
      <dia:attribute name="numcp">
        <dia:int val="1"/>
      </dia:attribute>
      <dia:attribute name="line_color">
        <dia:color val="#5c89b6ff"/>
      </dia:attribute>
      <dia:attribute name="end_arrow">
        <dia:enum val="22"/>
      </dia:attribute>
      <dia:attribute name="end_arrow_length">
        <dia:real val="0.5"/>
      </dia:attribute>
      <dia:attribute name="end_arrow_width">
        <dia:real val="0.5"/>
      </dia:attribute>
      <dia:connections>
        <dia:connection handle="0" to="O27" connection="12"/>
        <dia:connection handle="1" to="O26" connection="0"/>
      </dia:connections>
    </dia:object>
    <dia:object type="Standard - Text" version="1" id="O32">
      <dia:attribute name="obj_pos">
        <dia:point val="9.16375,34.95"/>
      </dia:attribute>
      <dia:attribute name="obj_bb">
        <dia:rectangle val="4.69875,34.95;9.16375,35.6975"/>
      </dia:attribute>
      <dia:attribute name="text">
        <dia:composite type="text">
          <dia:attribute name="string">
            <dia:string>#sendVncData #</dia:string>
          </dia:attribute>
          <dia:attribute name="font">
            <dia:font family="sans" style="0" name="Helvetica"/>
          </dia:attribute>
          <dia:attribute name="height">
            <dia:real val="0.80000000000000004"/>
          </dia:attribute>
          <dia:attribute name="pos">
            <dia:point val="9.16375,35.545"/>
          </dia:attribute>
          <dia:attribute name="color">
            <dia:color val="#000000ff"/>
          </dia:attribute>
          <dia:attribute name="alignment">
            <dia:enum val="2"/>
          </dia:attribute>
        </dia:composite>
      </dia:attribute>
      <dia:attribute name="valign">
        <dia:enum val="0"/>
      </dia:attribute>
      <dia:connections>
        <dia:connection handle="0" to="O31" connection="0"/>
      </dia:connections>
    </dia:object>
    <dia:object type="Standard - PolyLine" version="0" id="O33">
      <dia:attribute name="obj_pos">
        <dia:point val="12.9138,38"/>
      </dia:attribute>
      <dia:attribute name="obj_bb">
        <dia:rectangle val="10.4172,31.8353;12.9749,38.0611"/>
      </dia:attribute>
      <dia:attribute name="poly_points">
        <dia:point val="12.9138,38"/>
        <dia:point val="11.975,34.45"/>
        <dia:point val="11.875,35.45"/>
        <dia:point val="10.5,31.9"/>
      </dia:attribute>
      <dia:attribute name="line_color">
        <dia:color val="#49ce49ff"/>
      </dia:attribute>
      <dia:attribute name="end_arrow">
        <dia:enum val="22"/>
      </dia:attribute>
      <dia:attribute name="end_arrow_length">
        <dia:real val="0.5"/>
      </dia:attribute>
      <dia:attribute name="end_arrow_width">
        <dia:real val="0.5"/>
      </dia:attribute>
      <dia:connections>
        <dia:connection handle="0" to="O26" connection="1"/>
        <dia:connection handle="3" to="O27" connection="14"/>
      </dia:connections>
    </dia:object>
    <dia:object type="Standard - Text" version="1" id="O34">
      <dia:attribute name="obj_pos">
        <dia:point val="11.825,34.3"/>
      </dia:attribute>
      <dia:attribute name="obj_bb">
        <dia:rectangle val="11.825,33.705;14.6925,34.4525"/>
      </dia:attribute>
      <dia:attribute name="text">
        <dia:composite type="text">
          <dia:attribute name="string">
            <dia:string># vncData#</dia:string>
          </dia:attribute>
          <dia:attribute name="font">
            <dia:font family="sans" style="0" name="Helvetica"/>
          </dia:attribute>
          <dia:attribute name="height">
            <dia:real val="0.80000000000000004"/>
          </dia:attribute>
          <dia:attribute name="pos">
            <dia:point val="11.825,34.3"/>
          </dia:attribute>
          <dia:attribute name="color">
            <dia:color val="#000000ff"/>
          </dia:attribute>
          <dia:attribute name="alignment">
            <dia:enum val="0"/>
          </dia:attribute>
        </dia:composite>
      </dia:attribute>
      <dia:attribute name="valign">
        <dia:enum val="3"/>
      </dia:attribute>
    </dia:object>
    <dia:object type="Standard - PolyLine" version="0" id="O35">
      <dia:attribute name="obj_pos">
        <dia:point val="17.0862,38"/>
      </dia:attribute>
      <dia:attribute name="obj_bb">
        <dia:rectangle val="16.9273,27.835;19.815,38.0614"/>
      </dia:attribute>
      <dia:attribute name="poly_points">
        <dia:point val="17.0862,38"/>
        <dia:point val="18.625,32.35"/>
        <dia:point val="17.775,32.85"/>
        <dia:point val="19.75,27.9"/>
      </dia:attribute>
      <dia:attribute name="line_color">
        <dia:color val="#49ce49ff"/>
      </dia:attribute>
      <dia:attribute name="start_arrow">
        <dia:enum val="22"/>
      </dia:attribute>
      <dia:attribute name="start_arrow_length">
        <dia:real val="0.5"/>
      </dia:attribute>
      <dia:attribute name="start_arrow_width">
        <dia:real val="0.5"/>
      </dia:attribute>
      <dia:connections>
        <dia:connection handle="0" to="O26" connection="3"/>
        <dia:connection handle="3" to="O25" connection="12"/>
      </dia:connections>
    </dia:object>
    <dia:object type="Standard - Line" version="0" id="O36">
      <dia:attribute name="obj_pos">
        <dia:point val="19.1725,38"/>
      </dia:attribute>
      <dia:attribute name="obj_bb">
        <dia:rectangle val="19.1074,27.8349;23.3234,38.0651"/>
      </dia:attribute>
      <dia:attribute name="conn_endpoints">
        <dia:point val="19.1725,38"/>
        <dia:point val="23.25,27.9"/>
      </dia:attribute>
      <dia:attribute name="numcp">
        <dia:int val="1"/>
      </dia:attribute>
      <dia:attribute name="line_color">
        <dia:color val="#5c89b6ff"/>
      </dia:attribute>
      <dia:attribute name="end_arrow">
        <dia:enum val="22"/>
      </dia:attribute>
      <dia:attribute name="end_arrow_length">
        <dia:real val="0.5"/>
      </dia:attribute>
      <dia:attribute name="end_arrow_width">
        <dia:real val="0.5"/>
      </dia:attribute>
      <dia:connections>
        <dia:connection handle="0" to="O26" connection="4"/>
        <dia:connection handle="1" to="O25" connection="14"/>
      </dia:connections>
    </dia:object>
    <dia:object type="Standard - Text" version="1" id="O37">
      <dia:attribute name="obj_pos">
        <dia:point val="21.2112,32.95"/>
      </dia:attribute>
      <dia:attribute name="obj_bb">
        <dia:rectangle val="21.2112,32.95;23.0212,33.6975"/>
      </dia:attribute>
      <dia:attribute name="text">
        <dia:composite type="text">
          <dia:attribute name="string">
            <dia:string># write#</dia:string>
          </dia:attribute>
          <dia:attribute name="font">
            <dia:font family="sans" style="0" name="Helvetica"/>
          </dia:attribute>
          <dia:attribute name="height">
            <dia:real val="0.80000000000000004"/>
          </dia:attribute>
          <dia:attribute name="pos">
            <dia:point val="21.2112,33.545"/>
          </dia:attribute>
          <dia:attribute name="color">
            <dia:color val="#000000ff"/>
          </dia:attribute>
          <dia:attribute name="alignment">
            <dia:enum val="0"/>
          </dia:attribute>
        </dia:composite>
      </dia:attribute>
      <dia:attribute name="valign">
        <dia:enum val="0"/>
      </dia:attribute>
      <dia:connections>
        <dia:connection handle="0" to="O36" connection="0"/>
      </dia:connections>
    </dia:object>
    <dia:object type="Standard - Text" version="1" id="O38">
      <dia:attribute name="obj_pos">
        <dia:point val="17.885,32.18"/>
      </dia:attribute>
      <dia:attribute name="obj_bb">
        <dia:rectangle val="14.45,31.585;17.885,32.3325"/>
      </dia:attribute>
      <dia:attribute name="text">
        <dia:composite type="text">
          <dia:attribute name="string">
            <dia:string>#readyRead#</dia:string>
          </dia:attribute>
          <dia:attribute name="font">
            <dia:font family="sans" style="0" name="Helvetica"/>
          </dia:attribute>
          <dia:attribute name="height">
            <dia:real val="0.80000000000000004"/>
          </dia:attribute>
          <dia:attribute name="pos">
            <dia:point val="17.885,32.18"/>
          </dia:attribute>
          <dia:attribute name="color">
            <dia:color val="#000000ff"/>
          </dia:attribute>
          <dia:attribute name="alignment">
            <dia:enum val="2"/>
          </dia:attribute>
        </dia:composite>
      </dia:attribute>
      <dia:attribute name="valign">
        <dia:enum val="3"/>
      </dia:attribute>
    </dia:object>
    <dia:object type="Standard - BezierLine" version="0" id="O39">
      <dia:attribute name="obj_pos">
        <dia:point val="9,30.95"/>
      </dia:attribute>
      <dia:attribute name="obj_bb">
        <dia:rectangle val="8.9497,21.8497;9.07078,30.0004"/>
      </dia:attribute>
      <dia:attribute name="bez_points">
        <dia:point val="9,30.95"/>
        <dia:point val="9.025,24.45"/>
        <dia:point val="9.025,26.05"/>
        <dia:point val="9,21.9"/>
      </dia:attribute>
      <dia:attribute name="corner_types">
        <dia:enum val="0"/>
        <dia:enum val="0"/>
      </dia:attribute>
      <dia:attribute name="start_arrow">
        <dia:enum val="8"/>
      </dia:attribute>
      <dia:attribute name="start_arrow_length">
        <dia:real val="0.5"/>
      </dia:attribute>
      <dia:attribute name="start_arrow_width">
        <dia:real val="0.5"/>
      </dia:attribute>
      <dia:attribute name="end_arrow">
        <dia:enum val="22"/>
      </dia:attribute>
      <dia:attribute name="end_arrow_length">
        <dia:real val="0.5"/>
      </dia:attribute>
      <dia:attribute name="end_arrow_width">
        <dia:real val="0.5"/>
      </dia:attribute>
      <dia:connections>
        <dia:connection handle="0" to="O27" connection="16"/>
        <dia:connection handle="3" to="O28" connection="13"/>
      </dia:connections>
    </dia:object>
    <dia:object type="Standard - BezierLine" version="0" id="O40">
      <dia:attribute name="obj_pos">
        <dia:point val="21.5,26"/>
      </dia:attribute>
      <dia:attribute name="obj_bb">
        <dia:rectangle val="20.6382,19;21.8207,26.0707"/>
      </dia:attribute>
      <dia:attribute name="bez_points">
        <dia:point val="21.5,26"/>
        <dia:point val="21.5,22.5"/>
        <dia:point val="21,24"/>
        <dia:point val="21,19"/>
      </dia:attribute>
      <dia:attribute name="corner_types">
        <dia:enum val="0"/>
        <dia:enum val="0"/>
      </dia:attribute>
      <dia:attribute name="start_arrow">
        <dia:enum val="8"/>
      </dia:attribute>
      <dia:attribute name="start_arrow_length">
        <dia:real val="0.5"/>
      </dia:attribute>
      <dia:attribute name="start_arrow_width">
        <dia:real val="0.5"/>
      </dia:attribute>
      <dia:attribute name="end_arrow">
        <dia:enum val="22"/>
      </dia:attribute>
      <dia:attribute name="end_arrow_length">
        <dia:real val="0.5"/>
      </dia:attribute>
      <dia:attribute name="end_arrow_width">
        <dia:real val="0.5"/>
      </dia:attribute>
      <dia:connections>
        <dia:connection handle="0" to="O25" connection="2"/>
      </dia:connections>
    </dia:object>
    <dia:object type="Standard - Box" version="0" id="O41">
      <dia:attribute name="obj_pos">
        <dia:point val="31,22"/>
      </dia:attribute>
      <dia:attribute name="obj_bb">
        <dia:rectangle val="30.95,21.95;55.05,41.05"/>
      </dia:attribute>
      <dia:attribute name="elem_corner">
        <dia:point val="31,22"/>
      </dia:attribute>
      <dia:attribute name="elem_width">
        <dia:real val="24"/>
      </dia:attribute>
      <dia:attribute name="elem_height">
        <dia:real val="19"/>
      </dia:attribute>
      <dia:attribute name="show_background">
        <dia:boolean val="true"/>
      </dia:attribute>
    </dia:object>
    <dia:object type="Flowchart - Box" version="0" id="O42">
      <dia:attribute name="obj_pos">
        <dia:point val="33,26"/>
      </dia:attribute>
      <dia:attribute name="obj_bb">
        <dia:rectangle val="32.95,25.95;40.05,27.95"/>
      </dia:attribute>
      <dia:attribute name="elem_corner">
        <dia:point val="33,26"/>
      </dia:attribute>
      <dia:attribute name="elem_width">
        <dia:real val="7"/>
      </dia:attribute>
      <dia:attribute name="elem_height">
        <dia:real val="1.9000000000000004"/>
      </dia:attribute>
      <dia:attribute name="show_background">
        <dia:boolean val="true"/>
      </dia:attribute>
      <dia:attribute name="padding">
        <dia:real val="0.5"/>
      </dia:attribute>
      <dia:attribute name="text">
        <dia:composite type="text">
          <dia:attribute name="string">
            <dia:string>#HttpTunnelClient#</dia:string>
          </dia:attribute>
          <dia:attribute name="font">
            <dia:font family="sans" style="0" name="Helvetica"/>
          </dia:attribute>
          <dia:attribute name="height">
            <dia:real val="0.80000000000000004"/>
          </dia:attribute>
          <dia:attribute name="pos">
            <dia:point val="36.5,27.145"/>
          </dia:attribute>
          <dia:attribute name="color">
            <dia:color val="#000000ff"/>
          </dia:attribute>
          <dia:attribute name="alignment">
            <dia:enum val="1"/>
          </dia:attribute>
        </dia:composite>
      </dia:attribute>
    </dia:object>
    <dia:object type="Flowchart - Box" version="0" id="O43">
      <dia:attribute name="obj_pos">
        <dia:point val="37.665,38"/>
      </dia:attribute>
      <dia:attribute name="obj_bb">
        <dia:rectangle val="37.615,37.95;46.385,39.95"/>
      </dia:attribute>
      <dia:attribute name="elem_corner">
        <dia:point val="37.665,38"/>
      </dia:attribute>
      <dia:attribute name="elem_width">
        <dia:real val="8.6700000014901164"/>
      </dia:attribute>
      <dia:attribute name="elem_height">
        <dia:real val="1.9000000014901162"/>
      </dia:attribute>
      <dia:attribute name="border_width">
        <dia:real val="0.10000000149011612"/>
      </dia:attribute>
      <dia:attribute name="show_background">
        <dia:boolean val="true"/>
      </dia:attribute>
      <dia:attribute name="padding">
        <dia:real val="0.5"/>
      </dia:attribute>
      <dia:attribute name="text">
        <dia:composite type="text">
          <dia:attribute name="string">
            <dia:string>#NetHelpEndPointViewer#</dia:string>
          </dia:attribute>
          <dia:attribute name="font">
            <dia:font family="sans" style="0" name="Helvetica"/>
          </dia:attribute>
          <dia:attribute name="height">
            <dia:real val="0.80000000000000004"/>
          </dia:attribute>
          <dia:attribute name="pos">
            <dia:point val="42,39.145"/>
          </dia:attribute>
          <dia:attribute name="color">
            <dia:color val="#000000ff"/>
          </dia:attribute>
          <dia:attribute name="alignment">
            <dia:enum val="1"/>
          </dia:attribute>
        </dia:composite>
      </dia:attribute>
    </dia:object>
    <dia:object type="Flowchart - Box" version="0" id="O44">
      <dia:attribute name="obj_pos">
        <dia:point val="46,29.7"/>
      </dia:attribute>
      <dia:attribute name="obj_bb">
        <dia:rectangle val="45.95,29.65;54.05,34.05"/>
      </dia:attribute>
      <dia:attribute name="elem_corner">
        <dia:point val="46,29.7"/>
      </dia:attribute>
      <dia:attribute name="elem_width">
        <dia:real val="8"/>
      </dia:attribute>
      <dia:attribute name="elem_height">
        <dia:real val="4.3000000007450581"/>
      </dia:attribute>
      <dia:attribute name="border_width">
        <dia:real val="0.10000000149011612"/>
      </dia:attribute>
      <dia:attribute name="show_background">
        <dia:boolean val="true"/>
      </dia:attribute>
      <dia:attribute name="padding">
        <dia:real val="0.5"/>
      </dia:attribute>
      <dia:attribute name="text">
        <dia:composite type="text">
          <dia:attribute name="string">
            <dia:string>#VncPseudoServer#</dia:string>
          </dia:attribute>
          <dia:attribute name="font">
            <dia:font family="sans" style="0" name="Helvetica"/>
          </dia:attribute>
          <dia:attribute name="height">
            <dia:real val="0.80000000000000004"/>
          </dia:attribute>
          <dia:attribute name="pos">
            <dia:point val="50,32.045"/>
          </dia:attribute>
          <dia:attribute name="color">
            <dia:color val="#000000ff"/>
          </dia:attribute>
          <dia:attribute name="alignment">
            <dia:enum val="1"/>
          </dia:attribute>
        </dia:composite>
      </dia:attribute>
    </dia:object>
    <dia:object type="Flowchart - Box" version="0" id="O45">
      <dia:attribute name="obj_pos">
        <dia:point val="46,23"/>
      </dia:attribute>
      <dia:attribute name="obj_bb">
        <dia:rectangle val="45.95,22.95;52.05,26.95"/>
      </dia:attribute>
      <dia:attribute name="elem_corner">
        <dia:point val="46,23"/>
      </dia:attribute>
      <dia:attribute name="elem_width">
        <dia:real val="6"/>
      </dia:attribute>
      <dia:attribute name="elem_height">
        <dia:real val="3.9000000000000004"/>
      </dia:attribute>
      <dia:attribute name="show_background">
        <dia:boolean val="true"/>
      </dia:attribute>
      <dia:attribute name="padding">
        <dia:real val="0.5"/>
      </dia:attribute>
      <dia:attribute name="text">
        <dia:composite type="text">
          <dia:attribute name="string">
            <dia:string>#VncView#</dia:string>
          </dia:attribute>
          <dia:attribute name="font">
            <dia:font family="sans" style="0" name="Helvetica"/>
          </dia:attribute>
          <dia:attribute name="height">
            <dia:real val="0.80000000000000004"/>
          </dia:attribute>
          <dia:attribute name="pos">
            <dia:point val="49,25.145"/>
          </dia:attribute>
          <dia:attribute name="color">
            <dia:color val="#000000ff"/>
          </dia:attribute>
          <dia:attribute name="alignment">
            <dia:enum val="1"/>
          </dia:attribute>
        </dia:composite>
      </dia:attribute>
    </dia:object>
    <dia:object type="Standard - Text" version="1" id="O46">
      <dia:attribute name="obj_pos">
        <dia:point val="51,29.5"/>
      </dia:attribute>
      <dia:attribute name="obj_bb">
        <dia:rectangle val="51,28.905;52.8325,29.6525"/>
      </dia:attribute>
      <dia:attribute name="text">
        <dia:composite type="text">
          <dia:attribute name="string">
            <dia:string># 5901#</dia:string>
          </dia:attribute>
          <dia:attribute name="font">
            <dia:font family="sans" style="0" name="Helvetica"/>
          </dia:attribute>
          <dia:attribute name="height">
            <dia:real val="0.80000000000000004"/>
          </dia:attribute>
          <dia:attribute name="pos">
            <dia:point val="51,29.5"/>
          </dia:attribute>
          <dia:attribute name="color">
            <dia:color val="#000000ff"/>
          </dia:attribute>
          <dia:attribute name="alignment">
            <dia:enum val="0"/>
          </dia:attribute>
        </dia:composite>
      </dia:attribute>
      <dia:attribute name="valign">
        <dia:enum val="3"/>
      </dia:attribute>
      <dia:connections>
        <dia:connection handle="0" to="O56" connection="1"/>
      </dia:connections>
    </dia:object>
    <dia:object type="Standard - Line" version="0" id="O47">
      <dia:attribute name="obj_pos">
        <dia:point val="48,34"/>
      </dia:attribute>
      <dia:attribute name="obj_bb">
        <dia:rectangle val="44.0968,33.9293;48.0707,38.0707"/>
      </dia:attribute>
      <dia:attribute name="conn_endpoints">
        <dia:point val="48,34"/>
        <dia:point val="44.1675,38"/>
      </dia:attribute>
      <dia:attribute name="numcp">
        <dia:int val="1"/>
      </dia:attribute>
      <dia:attribute name="line_color">
        <dia:color val="#49ce49ff"/>
      </dia:attribute>
      <dia:attribute name="end_arrow">
        <dia:enum val="22"/>
      </dia:attribute>
      <dia:attribute name="end_arrow_length">
        <dia:real val="0.5"/>
      </dia:attribute>
      <dia:attribute name="end_arrow_width">
        <dia:real val="0.5"/>
      </dia:attribute>
      <dia:connections>
        <dia:connection handle="0" to="O44" connection="12"/>
        <dia:connection handle="1" to="O43" connection="3"/>
      </dia:connections>
    </dia:object>
    <dia:object type="Standard - Text" version="1" id="O48">
      <dia:attribute name="obj_pos">
        <dia:point val="46.0838,36"/>
      </dia:attribute>
      <dia:attribute name="obj_bb">
        <dia:rectangle val="41.6188,35.405;46.0838,36.1525"/>
      </dia:attribute>
      <dia:attribute name="text">
        <dia:composite type="text">
          <dia:attribute name="string">
            <dia:string>#sendVncData #</dia:string>
          </dia:attribute>
          <dia:attribute name="font">
            <dia:font family="sans" style="0" name="Helvetica"/>
          </dia:attribute>
          <dia:attribute name="height">
            <dia:real val="0.80000000000000004"/>
          </dia:attribute>
          <dia:attribute name="pos">
            <dia:point val="46.0838,36"/>
          </dia:attribute>
          <dia:attribute name="color">
            <dia:color val="#000000ff"/>
          </dia:attribute>
          <dia:attribute name="alignment">
            <dia:enum val="2"/>
          </dia:attribute>
        </dia:composite>
      </dia:attribute>
      <dia:attribute name="valign">
        <dia:enum val="3"/>
      </dia:attribute>
      <dia:connections>
        <dia:connection handle="0" to="O47" connection="0"/>
      </dia:connections>
    </dia:object>
    <dia:object type="Standard - PolyLine" version="0" id="O49">
      <dia:attribute name="obj_pos">
        <dia:point val="46.335,38.95"/>
      </dia:attribute>
      <dia:attribute name="obj_bb">
        <dia:rectangle val="46.265,33.9295;50.0705,39.02"/>
      </dia:attribute>
      <dia:attribute name="poly_points">
        <dia:point val="46.335,38.95"/>
        <dia:point val="48.2375,36.4"/>
        <dia:point val="46.9375,36.6"/>
        <dia:point val="50,34"/>
      </dia:attribute>
      <dia:attribute name="line_color">
        <dia:color val="#5c89b6ff"/>
      </dia:attribute>
      <dia:attribute name="end_arrow">
        <dia:enum val="22"/>
      </dia:attribute>
      <dia:attribute name="end_arrow_length">
        <dia:real val="0.5"/>
      </dia:attribute>
      <dia:attribute name="end_arrow_width">
        <dia:real val="0.5"/>
      </dia:attribute>
      <dia:connections>
        <dia:connection handle="0" to="O43" connection="8"/>
        <dia:connection handle="3" to="O44" connection="13"/>
      </dia:connections>
    </dia:object>
    <dia:object type="Standard - Text" version="1" id="O50">
      <dia:attribute name="obj_pos">
        <dia:point val="48.275,37"/>
      </dia:attribute>
      <dia:attribute name="obj_bb">
        <dia:rectangle val="48.275,36.405;51.1425,37.1525"/>
      </dia:attribute>
      <dia:attribute name="text">
        <dia:composite type="text">
          <dia:attribute name="string">
            <dia:string># vncData#</dia:string>
          </dia:attribute>
          <dia:attribute name="font">
            <dia:font family="sans" style="0" name="Helvetica"/>
          </dia:attribute>
          <dia:attribute name="height">
            <dia:real val="0.80000000000000004"/>
          </dia:attribute>
          <dia:attribute name="pos">
            <dia:point val="48.275,37"/>
          </dia:attribute>
          <dia:attribute name="color">
            <dia:color val="#000000ff"/>
          </dia:attribute>
          <dia:attribute name="alignment">
            <dia:enum val="0"/>
          </dia:attribute>
        </dia:composite>
      </dia:attribute>
      <dia:attribute name="valign">
        <dia:enum val="3"/>
      </dia:attribute>
    </dia:object>
    <dia:object type="Standard - PolyLine" version="0" id="O51">
      <dia:attribute name="obj_pos">
        <dia:point val="37.665,38"/>
      </dia:attribute>
      <dia:attribute name="obj_bb">
        <dia:rectangle val="34.6872,27.8372;37.9279,38.0562"/>
      </dia:attribute>
      <dia:attribute name="poly_points">
        <dia:point val="37.665,38"/>
        <dia:point val="36.9375,32.55"/>
        <dia:point val="36.5375,33.5"/>
        <dia:point val="34.75,27.9"/>
      </dia:attribute>
      <dia:attribute name="line_color">
        <dia:color val="#5c89b6ff"/>
      </dia:attribute>
      <dia:attribute name="start_arrow">
        <dia:enum val="22"/>
      </dia:attribute>
      <dia:attribute name="start_arrow_length">
        <dia:real val="0.5"/>
      </dia:attribute>
      <dia:attribute name="start_arrow_width">
        <dia:real val="0.5"/>
      </dia:attribute>
      <dia:connections>
        <dia:connection handle="0" to="O43" connection="0"/>
        <dia:connection handle="3" to="O42" connection="12"/>
      </dia:connections>
    </dia:object>
    <dia:object type="Standard - Line" version="0" id="O52">
      <dia:attribute name="obj_pos">
        <dia:point val="39.8325,38"/>
      </dia:attribute>
      <dia:attribute name="obj_bb">
        <dia:rectangle val="38.0046,27.8429;39.8896,38.0571"/>
      </dia:attribute>
      <dia:attribute name="conn_endpoints">
        <dia:point val="39.8325,38"/>
        <dia:point val="38.25,27.9"/>
      </dia:attribute>
      <dia:attribute name="numcp">
        <dia:int val="1"/>
      </dia:attribute>
      <dia:attribute name="line_color">
        <dia:color val="#49ce49ff"/>
      </dia:attribute>
      <dia:attribute name="end_arrow">
        <dia:enum val="22"/>
      </dia:attribute>
      <dia:attribute name="end_arrow_length">
        <dia:real val="0.5"/>
      </dia:attribute>
      <dia:attribute name="end_arrow_width">
        <dia:real val="0.5"/>
      </dia:attribute>
      <dia:connections>
        <dia:connection handle="0" to="O43" connection="1"/>
        <dia:connection handle="1" to="O42" connection="14"/>
      </dia:connections>
    </dia:object>
    <dia:object type="Standard - Text" version="1" id="O53">
      <dia:attribute name="obj_pos">
        <dia:point val="39.0412,32.95"/>
      </dia:attribute>
      <dia:attribute name="obj_bb">
        <dia:rectangle val="39.0412,32.95;40.8512,33.6975"/>
      </dia:attribute>
      <dia:attribute name="text">
        <dia:composite type="text">
          <dia:attribute name="string">
            <dia:string># write#</dia:string>
          </dia:attribute>
          <dia:attribute name="font">
            <dia:font family="sans" style="0" name="Helvetica"/>
          </dia:attribute>
          <dia:attribute name="height">
            <dia:real val="0.80000000000000004"/>
          </dia:attribute>
          <dia:attribute name="pos">
            <dia:point val="39.0412,33.545"/>
          </dia:attribute>
          <dia:attribute name="color">
            <dia:color val="#000000ff"/>
          </dia:attribute>
          <dia:attribute name="alignment">
            <dia:enum val="0"/>
          </dia:attribute>
        </dia:composite>
      </dia:attribute>
      <dia:attribute name="valign">
        <dia:enum val="0"/>
      </dia:attribute>
      <dia:connections>
        <dia:connection handle="0" to="O52" connection="0"/>
      </dia:connections>
    </dia:object>
    <dia:object type="Standard - Text" version="1" id="O54">
      <dia:attribute name="obj_pos">
        <dia:point val="36.185,33.58"/>
      </dia:attribute>
      <dia:attribute name="obj_bb">
        <dia:rectangle val="32.75,32.985;36.185,33.7325"/>
      </dia:attribute>
      <dia:attribute name="text">
        <dia:composite type="text">
          <dia:attribute name="string">
            <dia:string>#readyRead#</dia:string>
          </dia:attribute>
          <dia:attribute name="font">
            <dia:font family="sans" style="0" name="Helvetica"/>
          </dia:attribute>
          <dia:attribute name="height">
            <dia:real val="0.80000000000000004"/>
          </dia:attribute>
          <dia:attribute name="pos">
            <dia:point val="36.185,33.58"/>
          </dia:attribute>
          <dia:attribute name="color">
            <dia:color val="#000000ff"/>
          </dia:attribute>
          <dia:attribute name="alignment">
            <dia:enum val="2"/>
          </dia:attribute>
        </dia:composite>
      </dia:attribute>
      <dia:attribute name="valign">
        <dia:enum val="3"/>
      </dia:attribute>
    </dia:object>
    <dia:object type="Standard - BezierLine" version="0" id="O55">
      <dia:attribute name="obj_pos">
        <dia:point val="36.5,26"/>
      </dia:attribute>
      <dia:attribute name="obj_bb">
        <dia:rectangle val="36.1793,19;37.3618,26.0707"/>
      </dia:attribute>
      <dia:attribute name="bez_points">
        <dia:point val="36.5,26"/>
        <dia:point val="36.5,22"/>
        <dia:point val="37,24"/>
        <dia:point val="37,19"/>
      </dia:attribute>
      <dia:attribute name="corner_types">
        <dia:enum val="0"/>
        <dia:enum val="0"/>
      </dia:attribute>
      <dia:attribute name="start_arrow">
        <dia:enum val="8"/>
      </dia:attribute>
      <dia:attribute name="start_arrow_length">
        <dia:real val="0.5"/>
      </dia:attribute>
      <dia:attribute name="start_arrow_width">
        <dia:real val="0.5"/>
      </dia:attribute>
      <dia:attribute name="end_arrow">
        <dia:enum val="22"/>
      </dia:attribute>
      <dia:attribute name="end_arrow_length">
        <dia:real val="0.5"/>
      </dia:attribute>
      <dia:attribute name="end_arrow_width">
        <dia:real val="0.5"/>
      </dia:attribute>
      <dia:connections>
        <dia:connection handle="0" to="O42" connection="2"/>
      </dia:connections>
    </dia:object>
    <dia:object type="chemengtmp - tank" version="1" id="O56">
      <dia:attribute name="obj_pos">
        <dia:point val="49,29"/>
      </dia:attribute>
      <dia:attribute name="obj_bb">
        <dia:rectangle val="48.9,28.9;51.1,31.1"/>
      </dia:attribute>
      <dia:attribute name="meta">
        <dia:composite type="dict"/>
      </dia:attribute>
      <dia:attribute name="elem_corner">
        <dia:point val="49,29"/>
      </dia:attribute>
      <dia:attribute name="elem_width">
        <dia:real val="2"/>
      </dia:attribute>
      <dia:attribute name="elem_height">
        <dia:real val="2"/>
      </dia:attribute>
      <dia:attribute name="line_width">
        <dia:real val="0.10000000149011612"/>
      </dia:attribute>
      <dia:attribute name="line_colour">
        <dia:color val="#000000ff"/>
      </dia:attribute>
      <dia:attribute name="fill_colour">
        <dia:color val="#ffffffff"/>
      </dia:attribute>
      <dia:attribute name="show_background">
        <dia:boolean val="true"/>
      </dia:attribute>
      <dia:attribute name="line_style">
        <dia:enum val="0"/>
        <dia:real val="1"/>
      </dia:attribute>
      <dia:attribute name="flip_horizontal">
        <dia:boolean val="true"/>
      </dia:attribute>
      <dia:attribute name="flip_vertical">
        <dia:boolean val="false"/>
      </dia:attribute>
      <dia:attribute name="subscale">
        <dia:real val="1"/>
      </dia:attribute>
    </dia:object>
    <dia:object type="Standard - BezierLine" version="0" id="O57">
      <dia:attribute name="obj_pos">
        <dia:point val="49,26.9"/>
      </dia:attribute>
      <dia:attribute name="obj_bb">
        <dia:rectangle val="48.6793,26.8293;50.3618,30"/>
      </dia:attribute>
      <dia:attribute name="bez_points">
        <dia:point val="49,26.9"/>
        <dia:point val="49,28.5"/>
        <dia:point val="50,27.5"/>
        <dia:point val="50,30"/>
      </dia:attribute>
      <dia:attribute name="corner_types">
        <dia:enum val="0"/>
        <dia:enum val="0"/>
      </dia:attribute>
      <dia:attribute name="start_arrow">
        <dia:enum val="8"/>
      </dia:attribute>
      <dia:attribute name="start_arrow_length">
        <dia:real val="0.5"/>
      </dia:attribute>
      <dia:attribute name="start_arrow_width">
        <dia:real val="0.5"/>
      </dia:attribute>
      <dia:attribute name="end_arrow">
        <dia:enum val="22"/>
      </dia:attribute>
      <dia:attribute name="end_arrow_length">
        <dia:real val="0.5"/>
      </dia:attribute>
      <dia:attribute name="end_arrow_width">
        <dia:real val="0.5"/>
      </dia:attribute>
      <dia:connections>
        <dia:connection handle="0" to="O45" connection="13"/>
      </dia:connections>
    </dia:object>
    <dia:object type="Standard - Text" version="1" id="O58">
      <dia:attribute name="obj_pos">
        <dia:point val="15,1.5"/>
      </dia:attribute>
      <dia:attribute name="obj_bb">
        <dia:rectangle val="15,0.71;18.15,1.7025"/>
      </dia:attribute>
      <dia:attribute name="text">
        <dia:composite type="text">
          <dia:attribute name="string">
            <dia:string>#Server#</dia:string>
          </dia:attribute>
          <dia:attribute name="font">
            <dia:font family="sans" style="80" name="Helvetica-Bold"/>
          </dia:attribute>
          <dia:attribute name="height">
            <dia:real val="1.061155559048502"/>
          </dia:attribute>
          <dia:attribute name="pos">
            <dia:point val="15,1.5"/>
          </dia:attribute>
          <dia:attribute name="color">
            <dia:color val="#000000ff"/>
          </dia:attribute>
          <dia:attribute name="alignment">
            <dia:enum val="0"/>
          </dia:attribute>
        </dia:composite>
      </dia:attribute>
      <dia:attribute name="valign">
        <dia:enum val="3"/>
      </dia:attribute>
    </dia:object>
    <dia:object type="Standard - Text" version="1" id="O59">
      <dia:attribute name="obj_pos">
        <dia:point val="4,24.5"/>
      </dia:attribute>
      <dia:attribute name="obj_bb">
        <dia:rectangle val="4,23.71;6.7875,24.7025"/>
      </dia:attribute>
      <dia:attribute name="text">
        <dia:composite type="text">
          <dia:attribute name="string">
            <dia:string>#Client#</dia:string>
          </dia:attribute>
          <dia:attribute name="font">
            <dia:font family="sans" style="80" name="Helvetica-Bold"/>
          </dia:attribute>
          <dia:attribute name="height">
            <dia:real val="1.061155559048502"/>
          </dia:attribute>
          <dia:attribute name="pos">
            <dia:point val="4,24.5"/>
          </dia:attribute>
          <dia:attribute name="color">
            <dia:color val="#000000ff"/>
          </dia:attribute>
          <dia:attribute name="alignment">
            <dia:enum val="0"/>
          </dia:attribute>
        </dia:composite>
      </dia:attribute>
      <dia:attribute name="valign">
        <dia:enum val="3"/>
      </dia:attribute>
    </dia:object>
    <dia:object type="Standard - Text" version="1" id="O60">
      <dia:attribute name="obj_pos">
        <dia:point val="55,21.5"/>
      </dia:attribute>
      <dia:attribute name="obj_bb">
        <dia:rectangle val="51.715,20.71;55,21.7025"/>
      </dia:attribute>
      <dia:attribute name="text">
        <dia:composite type="text">
          <dia:attribute name="string">
            <dia:string>#Viewer#</dia:string>
          </dia:attribute>
          <dia:attribute name="font">
            <dia:font family="sans" style="80" name="Helvetica-Bold"/>
          </dia:attribute>
          <dia:attribute name="height">
            <dia:real val="1.061155559048502"/>
          </dia:attribute>
          <dia:attribute name="pos">
            <dia:point val="55,21.5"/>
          </dia:attribute>
          <dia:attribute name="color">
            <dia:color val="#000000ff"/>
          </dia:attribute>
          <dia:attribute name="alignment">
            <dia:enum val="2"/>
          </dia:attribute>
        </dia:composite>
      </dia:attribute>
      <dia:attribute name="valign">
        <dia:enum val="3"/>
      </dia:attribute>
    </dia:object>
    <dia:object type="Standard - Line" version="0" id="O61">
      <dia:attribute name="obj_pos">
        <dia:point val="24,3.475"/>
      </dia:attribute>
      <dia:attribute name="obj_bb">
        <dia:rectangle val="23.95,3.1132;34.05,3.8368"/>
      </dia:attribute>
      <dia:attribute name="conn_endpoints">
        <dia:point val="24,3.475"/>
        <dia:point val="34,3.475"/>
      </dia:attribute>
      <dia:attribute name="numcp">
        <dia:int val="1"/>
      </dia:attribute>
      <dia:attribute name="line_color">
        <dia:color val="#5c89b6ff"/>
      </dia:attribute>
      <dia:attribute name="end_arrow">
        <dia:enum val="22"/>
      </dia:attribute>
      <dia:attribute name="end_arrow_length">
        <dia:real val="0.5"/>
      </dia:attribute>
      <dia:attribute name="end_arrow_width">
        <dia:real val="0.5"/>
      </dia:attribute>
      <dia:connections>
        <dia:connection handle="0" to="O2" connection="6"/>
        <dia:connection handle="1" to="O3" connection="5"/>
      </dia:connections>
    </dia:object>
    <dia:object type="Standard - Line" version="0" id="O62">
      <dia:attribute name="obj_pos">
        <dia:point val="35.5,4.9"/>
      </dia:attribute>
      <dia:attribute name="obj_bb">
        <dia:rectangle val="35.1382,4.85;35.8618,10.05"/>
      </dia:attribute>
      <dia:attribute name="conn_endpoints">
        <dia:point val="35.5,4.9"/>
        <dia:point val="35.5,10"/>
      </dia:attribute>
      <dia:attribute name="numcp">
        <dia:int val="1"/>
      </dia:attribute>
      <dia:attribute name="line_color">
        <dia:color val="#5c89b6ff"/>
      </dia:attribute>
      <dia:attribute name="end_arrow">
        <dia:enum val="22"/>
      </dia:attribute>
      <dia:attribute name="end_arrow_length">
        <dia:real val="0.5"/>
      </dia:attribute>
      <dia:attribute name="end_arrow_width">
        <dia:real val="0.5"/>
      </dia:attribute>
      <dia:connections>
        <dia:connection handle="0" to="O3" connection="12"/>
        <dia:connection handle="1" to="O5" connection="1"/>
      </dia:connections>
    </dia:object>
    <dia:object type="Standard - Line" version="0" id="O63">
      <dia:attribute name="obj_pos">
        <dia:point val="22.5,4.9"/>
      </dia:attribute>
      <dia:attribute name="obj_bb">
        <dia:rectangle val="22.1382,4.85;22.8618,10.05"/>
      </dia:attribute>
      <dia:attribute name="conn_endpoints">
        <dia:point val="22.5,4.9"/>
        <dia:point val="22.5,10"/>
      </dia:attribute>
      <dia:attribute name="numcp">
        <dia:int val="1"/>
      </dia:attribute>
      <dia:attribute name="line_color">
        <dia:color val="#49ce49ff"/>
      </dia:attribute>
      <dia:attribute name="end_arrow">
        <dia:enum val="22"/>
      </dia:attribute>
      <dia:attribute name="end_arrow_length">
        <dia:real val="0.5"/>
      </dia:attribute>
      <dia:attribute name="end_arrow_width">
        <dia:real val="0.5"/>
      </dia:attribute>
      <dia:connections>
        <dia:connection handle="0" to="O2" connection="14"/>
        <dia:connection handle="1" to="O4" connection="3"/>
      </dia:connections>
    </dia:object>
    <dia:object type="Standard - Line" version="0" id="O64">
      <dia:attribute name="obj_pos">
        <dia:point val="34,4.425"/>
      </dia:attribute>
      <dia:attribute name="obj_bb">
        <dia:rectangle val="23.95,4.0632;34.05,4.7868"/>
      </dia:attribute>
      <dia:attribute name="conn_endpoints">
        <dia:point val="34,4.425"/>
        <dia:point val="24,4.425"/>
      </dia:attribute>
      <dia:attribute name="numcp">
        <dia:int val="1"/>
      </dia:attribute>
      <dia:attribute name="line_color">
        <dia:color val="#49ce49ff"/>
      </dia:attribute>
      <dia:attribute name="end_arrow">
        <dia:enum val="22"/>
      </dia:attribute>
      <dia:attribute name="end_arrow_length">
        <dia:real val="0.5"/>
      </dia:attribute>
      <dia:attribute name="end_arrow_width">
        <dia:real val="0.5"/>
      </dia:attribute>
      <dia:connections>
        <dia:connection handle="0" to="O3" connection="9"/>
        <dia:connection handle="1" to="O2" connection="10"/>
      </dia:connections>
    </dia:object>
    <dia:object type="Standard - Text" version="1" id="O65">
      <dia:attribute name="obj_pos">
        <dia:point val="29,4.425"/>
      </dia:attribute>
      <dia:attribute name="obj_bb">
        <dia:rectangle val="26.8687,4.425;31.1312,5.1725"/>
      </dia:attribute>
      <dia:attribute name="text">
        <dia:composite type="text">
          <dia:attribute name="string">
            <dia:string>#sendVncData#</dia:string>
          </dia:attribute>
          <dia:attribute name="font">
            <dia:font family="sans" style="0" name="Helvetica"/>
          </dia:attribute>
          <dia:attribute name="height">
            <dia:real val="0.80000000000000004"/>
          </dia:attribute>
          <dia:attribute name="pos">
            <dia:point val="29,5.02"/>
          </dia:attribute>
          <dia:attribute name="color">
            <dia:color val="#000000ff"/>
          </dia:attribute>
          <dia:attribute name="alignment">
            <dia:enum val="1"/>
          </dia:attribute>
        </dia:composite>
      </dia:attribute>
      <dia:attribute name="valign">
        <dia:enum val="0"/>
      </dia:attribute>
      <dia:connections>
        <dia:connection handle="0" to="O64" connection="0"/>
      </dia:connections>
    </dia:object>
    <dia:object type="Standard - Text" version="1" id="O66">
      <dia:attribute name="obj_pos">
        <dia:point val="29,3.475"/>
      </dia:attribute>
      <dia:attribute name="obj_bb">
        <dia:rectangle val="26.8687,2.7275;31.1312,3.475"/>
      </dia:attribute>
      <dia:attribute name="text">
        <dia:composite type="text">
          <dia:attribute name="string">
            <dia:string>#sendVncData#</dia:string>
          </dia:attribute>
          <dia:attribute name="font">
            <dia:font family="sans" style="0" name="Helvetica"/>
          </dia:attribute>
          <dia:attribute name="height">
            <dia:real val="0.80000000000000004"/>
          </dia:attribute>
          <dia:attribute name="pos">
            <dia:point val="29,3.3225"/>
          </dia:attribute>
          <dia:attribute name="color">
            <dia:color val="#000000ff"/>
          </dia:attribute>
          <dia:attribute name="alignment">
            <dia:enum val="1"/>
          </dia:attribute>
        </dia:composite>
      </dia:attribute>
      <dia:attribute name="valign">
        <dia:enum val="1"/>
      </dia:attribute>
      <dia:connections>
        <dia:connection handle="0" to="O61" connection="0"/>
      </dia:connections>
    </dia:object>
  </dia:layer>
</dia:diagram>
